codigo,nombre,,Codigo_Tekins,codigo_aux,planmarca,nature
1.,ACTIVO,,,1,0,1
1.1.,ACTIVO CORRIENTE,,,11,0,1
1.1.1.,EFECTIVO,,,111,0,1
1.1.1.01,Caja Menuda,CAJA MENUDA                             ,101.01         ,11101,1,1
1.1.1.02,Multibank Cta Corriente,MULTIBANK CTA CORRIENTE                 ,101.02         ,11102,1,1
1.1.1.03,Multibank Cta Ahorro,MULTIBANK CTA AHORRO                    ,101.03         ,11103,1,1
1.1.1.04,Banco General Cta Corriente,BANCO GENERAL CTA CORRIENTE             ,101.04         ,11104,1,1
1.1.1.05,Banco General - Cta. Cte.2,BANCO GENERAL - CTA. CTE.2              ,101.05         ,11105,1,1
1.1.1.06,Plazo Fijo,PLAZO FIJO                              ,101.06         ,11106,1,1
1.1.1.07,At Call,AT CALL                                 ,101.07         ,11107,1,1
1.1.1.08,Prival Bank,PRIVAL BANK                             ,101.08         ,11108,1,1
1.1.1.09,Icaza Trust Corp. Fp 10-087,ICAZA TRUST CORP. FP 10-087             ,101.09         ,11109,1,1
1.1.1.10,Hemisphere Bank,HEMISPHERE BANK                         ,101.10         ,11110,1,1
1.1.1.11,Banisi Cta Cte,BANISI                                  ,101.11         ,11111,1,1
1.1.2.,OTRAS CUENTAS POR COBRAR,,,112,0,1
1.1.2.1,Cuentas Por Cobrar Clientes,CUENTAS POR COBRAR CLIENTES             ,102.01         ,1121,1,1
1.1.2.2,Cuentas Por Cobrar Accionistas,CUENTAS POR COBRAR ACCIONISTAS          ,102.02         ,1122,1,1
1.1.2.3,Otras Cuentas Por Cobrar,OTRAS CUENTAS POR COBRAR                ,102.03         ,1123,1,1
1.1.2.4,Int. Por Cobrar S/bonos Privad,INT. POR COBRAR S/BONOS PRIVAD          ,102.04         ,1124,1,1
1.1.2.5,Cuentas Por Cobrar Empleados,CUENTAS POR COBRAR EMPLEADOS            ,102.05         ,1125,1,1
1.1.2.6,Suscripciones Por Cobrar,SUSCRIPCIONES POR COBRAR                ,102.06         ,1126,1,1
1.1.3.,FACTURAS POR COBRAR,,,113,0,1
1.1.3.1,Facturas Por Cobrar,FACTURAS POR COBRAR                     ,103.00         ,1131,1,1
1.1.3.2,Intereses Por Cobrar Facturas,INTERESES  X COBRAR FACT                ,104.00         ,1132,1,1
1.1.3.3,Provision Para Cuentas Malas,PROVISION PARA CUENTAS MALAS            ,106.00         ,1133,1,1
1.1.3.4,Operaciones De Factoring,,,1134,1,1
1.1.3.5,Intereses Operaciones Factoring,,,1135,1,1
1.1.3.6,Reverse Factoring,,,1136,1,1
1.1.3.7,Intereses Reverse Factoring,,,1137,1,1
1.1.4.,GASTOS PAGADOS POR ADELANTADO,,,114,0,1
1.1.4.1,Comision Por Cobrar,COMISION POR COBRAR                     ,108.00         ,1141,1,1
1.1.4.2,Cheques Dev. Por Cobrar,CHEQUES DEV. POR COBRAR                 ,109.00         ,1142,1,1
1.1.4.3,Gastos Pagados Por Adelantado,GASTOS PAGADOS POR ADELANTADO           ,110.00         ,1143,1,1
1.1.4.4,Adm. De Fideicomiso,ADM. DE FIDEICOMISO                     ,110.01         ,1144,1,1
1.1.4.5,Impto. Pagado Por Adelantado,IMPTO. PAGADO POR ADELANTADO            ,117.00         ,1145,1,1
1.1.4.6,Seguro Pagado Por Adelantado,SEGURO PAGADO POR ADELANTADO            ,118.00         ,1146,1,1
1.1.4.7,Gastos De Bonos Pag Por Adel.,GASTOS DE BONOS PAG POR ADEL.           ,119.00         ,1147,1,1
1.1.4.8,Gastos Vcn Pag Por  Adelantado,GASTOS VCN PAG POR  ADELANTADO          ,119.01         ,1148,1,1
1.1.5.,IMPUESTOS ADELANTADOS,,,115,0,1
1.1.5.1,Imp. S/renta Pag. Por Adelant.,IMP. S/RENTA PAG. POR ADELANT.          ,111.00         ,1151,1,1
1.1.5.2,Imp. Compl. Pag. Por Adelant.,IMP. COMPL. PAG. POR ADELANT.           ,112.00         ,1152,1,1
1.2.,ACTIVO NO CORRIENTE,,,12,0,1
1.2.1.,PROPIEDAD PLANTA Y EQUIPO,,,121,0,1
1.2.1.01,Activos Fijos,ACTIVOS FIJOS                           ,113.00         ,12101,1,1
1.2.1.02,Mobiliario Y Eq. Oficina,MOBILIARIO Y EQ. OFICINA                ,113.01         ,12102,1,1
1.2.1.03,Equipo De Computo,EQUIPO DE COMPUTO                       ,113.02         ,12103,1,1
1.2.1.04,Mejoras Al Local Arrendado,MEJORAS AL LOCAL ARRENDADO              ,113.03         ,12104,1,1
1.2.1.05,Equipo Rodante,EQUIPO RODANTE                          ,113.04         ,12105,1,1
1.2.1.06,Central Telefonica,CENTRAL TELEFONICA                      ,113.05         ,12106,1,1
1.2.1.07,Depr. Acum. De Mob.y Equipo,DEPR. ACUM. DE MOB.Y EQUIPO             ,113.06         ,12107,1,1
1.2.1.08,Depr. Acum. De Eq. De Computo,DEPR. ACUM. DE EQ. DE COMPUTO           ,113.07         ,12108,1,1
1.2.1.09,Amortizacion De Mejoras,AMORTIZACION DE MEJORAS                 ,113.08         ,12109,1,1
1.2.1.10,Depr. Acum. Eq. Rodante,DEPR. ACUM. EQ. RODANTE                 ,113.09         ,12110,1,1
1.2.1.11,Depr. Acum. Central Telefonica,DEPR. ACUM. CENTRAL TELEFONICA          ,113.10         ,12111,1,1
1.2.2.,INVERSIONES,,,122,0,1
1.2.2.1,Inversion En Bonos Privados,INVERSION EN BONOS PRIVADOS             ,114.00         ,1221,1,1
1.2.2.2,Inversion En Acciones,INVERSION EN ACCIONES                   ,114.01         ,1222,1,1
1.2.2.3,Plusvalia,PLUSVALIA                               ,114.10         ,1223,1,1
1.2.2.4,Organizacion,ORGANIZACION                            ,115.00         ,1224,1,1
1.2.2.5,Fondo De Cesantia,FONDO DE CESANTIA                       ,116.00         ,1225,1,1
1.2.3.,DEPOSITIOS EN GARANTIA,,,123,0,1
1.2.3.1,Depositos Y Fianzas,DEPOSITOS Y FIANZAS                     ,118.01         ,1231,1,1
1.2.3.2,Depositos En Garantia,DEPOSITOS EN GARANTIA                   ,107.00         ,1232,1,1
1.2.4.,PROPIEDADES PARA VENTA,,,124,0,1
1.2.4.1,Propiedades Para Venta,PROPIEDAD PARA LA VENTA                 ,120.00         ,1241,1,1
1.2.5.,IMPUESTO DIFERIDO,,,125,0,1
1.2.5.1,Imp.sobre Renta Diferido,IMPUESTO SOBRE RENTA DIFERIDO           ,110.02         ,1251,1,1
2.,PASIVO,,,2,0,0
2.1.,PASIVOS CORRIENTES,,,21,0,0
2.1.1.,CUENTAS POR PAGAR,,,211,0,0
2.1.1.1,Cta Por Pagar Accionistas,CTA POR PAGAR ACCIONISTAS               ,200.01         ,2111,1,0
2.1.1.2,Cuentas Por Pagar Clientes,CUENTAS POR PAGAR CLIENTES              ,201.02         ,2112,1,0
2.1.1.3,Cta Por Pagar Afiliadas,CTA POR PAGAR AFILIADAS                 ,201.03         ,2113,1,0
2.1.1.4,Cuentas Por Pagar Comercial,CUENTAS POR PAGAR COMERCIAL             ,201.04         ,2114,1,0
2.1.1.5,Cuentas Por Pagar Otros,CUENTAS POR PAGAR OTROS                 ,201.05         ,2115,1,0
2.1.1.6,Cuentas Por Pagar Tcg Capital,,,2116,1,0
2.1.1.7,Cuenta Por Pagar Acf V,,,2117,1,0
2.1.2.,VALORES COMERCIALES POR PAGAR,,,212,0,0
2.1.2.1,Bonos Por Pagar,,,2121,1,0
2.1.2.2,Vcns Por Pagar,VCNS POR PAGAR                          ,201.09         ,2122,1,0
2.1.3.,VALORES VENDIDOS- RECOMPRA,,,213,0,0
2.1.3.1,Repo Por Pagar,REPO POR PAGAR                          ,201.07         ,2131,1,0
2.1.4.,INTERESES POR PAGAR,,,214,0,0
2.1.4.1,Intereses Por Pagar-bancos-,INTERESES POR PAGAR-BANCOS-             ,203.01         ,2141,1,0
2.1.4.2,Intereses Por Pagar-otros-,INTERESES POR PAGAR-OTROS-              ,203.02         ,2142,1,0
2.1.5.,PROVISION IMPUESTO A LA RENTA,,,215,0,0
2.1.5.1,Comisiones Cobradas No Ganadas,COMISIONES COBRADAS NO GANADAS          ,210.00         ,2151,1,0
2.1.5.2,Impto Sobre La Renta Empresa,IMPTO SOBRE LA RENTA EMPRESA            ,211.00         ,2152,1,0
2.1.5.3,Imp. S/renta Por Pagar,IMP. S/RENTA POR PAGAR                  ,204.00         ,2153,1,0
2.1.6.,PRESTAMOS POR PAGAR,,,216,0,0
2.1.6.1,Prestamos Por Pagar-otros-,PRESTAMOS POR PAGAR-OTROS-              ,202.02         ,2161,1,0
2.1.6.2,Prestamos Por Pagar Findes,PRESTAMOS POR PAGAR FINDES              ,202.03         ,2162,1,0
2.1.6.3,Linea Credito Prival Bank,,,2163,1,0
2.1.7.,DEPOSITOS EN GARANTIA,,,217,0,0
2.1.7.1,Descuentos Diferidos,DESCUENTOS DIFERIDOS                    ,209.00         ,2171,1,0
2.1.7.2,Depositos En Garantias X Pagar,DEPOSITOS EN GARANTIAS X PAGAR          ,209.01         ,2172,1,0
2.1.8.,OTRAS CUENTAS POR PAGAR,,,218,0,0
2.1.8.01,Salarios Por Pagar,SALARIOS POR PAGAR                      ,202.01         ,21801,1,0
2.1.8.02,Notarias Por Pagar,NOTARIAS POR PAGAR                      ,204.01         ,21802,1,0
2.1.8.03,Timbres Por Pagar,TIMBRES POR PAGAR                       ,204.02         ,21803,1,0
2.1.8.04,Retencion De Empleados Por Pag,RETENCION DE EMPLEADOS POR PAG          ,205.00         ,21804,1,0
2.1.8.05,Descuento Empleado Por Pagar,DESCUENTO EMPLEADO POR PAGAR            ,206.00         ,21805,1,0
2.1.8.06,Vacaciones Por Pagar,VACACIONES POR PAGAR                    ,207.00         ,21806,1,0
2.1.8.07,Xiii Mes Por Pagar,XIII MES POR PAGAR                      ,208.00         ,21807,1,0
2.1.8.08,Balance De Desembolso,BALANCE DE DESEMBOLSO                   ,209.05         ,21808,1,0
2.1.8.09,Impto S/ Dividendos  Por Pagar,IMPTO S/ DIVIDENDOS  POR PAGAR          ,211.01         ,21809,1,0
2.1.8.10,Intereses Ganados Por Ant.,INTERESES GANADOS POR ANT.              ,212.00         ,21810,1,0
2.1.8.11,Seguro Social Por Pagar,SEGURO SOCIAL POR PAGAR                 ,213.00         ,,1,0
2.1.8.12,Seguro Soc. Patronal Por Pagar,SEGURO SOC. PATRONAL POR PAGAR          ,214.00         ,,1,0
2.1.8.13,Seguro Educativo Por Pagar,SEGURO EDUCATIVO POR PAGAR              ,215.00         ,,1,0
2.1.8.14,Seg. Educ. Patronal Por Pagar,SEG. EDUC. PATRONAL POR PAGAR           ,216.00         ,,1,0
2.1.8.15,Riesgo Profesional Por Pagar,RIESGO PROFESIONAL POR PAGAR            ,217.00         ,,1,0
2.1.8.16,Reserva Para Prima De Antigued,RESERVA PARA PRIMA DE ANTIGUED          ,218.00         ,,1,0
2.1.8.17,Gastos Legales Y Tram Por Paga,GASTOS LEGALES Y TRAM POR PAGA          ,219.00         ,,1,0
2.1.8.18,Provision Bono De Estructuraci,PROVISION BONO DE ESTRUCTURACI          ,220.00         ,,1,0
2.1.8.19,Premio En Venta De Bonos,PREMIO EN VENTA DE BONOS                ,221.00         ,,1,0
2.1.8.20,Dividendos Por Pagar,DIVIDENDOS POR PAGAR                    ,222.00         ,,1,0
2.2.,PASIVOS LARGO PLAZO,,,22,0,0
2.2.1.,BONOS POR PAGAR,,,221,0,0
2.2.1.1,Bonos Por Pagar I Emision,BONOS POR PAGAR I EMISION               ,201.06         ,2211,1,0
3.,PATRIMONIO,,,3,0,0
3.1.,CAPITAL PAGADO,,,31,0,0
3.1.1,Capital,CAPITAL                                 ,301.00         ,,1,0
3.1.2,Capital Adicional Pagado,CAPITAL ADICIONAL PAGADO                ,301.10         ,,1,0
3.2.,BONOS SUSCRITOS,,,32,0,0
3.2.1,Bonos Subordinados C. Acciones,BONOS SUBORDINADOS C. ACCIONES          ,301.20         ,321,1,0
3.3.,UTILIDADES RETENIDAS,,,33,0,0
3.3.1,Ganancia O Perdida A¥os Anter.,GANANCIA O PERDIDA A¥OS ANTER.          ,302.01         ,331,1,0
3.3.2,Utilidades Retenidas,UTILIDADES RETENIDAS                    ,303.00         ,332,1,0
3.3.3,Dividendos Declarados,DIVIDENDOS DECLARADOS                   ,304.00         ,333,1,0
3.3.4,Utilidad Del Ejercicio,,,334,1,0
4.,INGRESOS,,,4,0,0
4.1.,INGRESOS OPERACIONALES,,,41,0,0
4.1.1,Descuento 2,DESCUENTO 2                             ,401.00         ,411,1,0
4.1.2,Descuento 1,DESCUENTO 1                             ,402.00         ,412,1,0
4.1.3,Descuento 1 Adic Por Mora,DESCUENTO 1 ADIC POR MORA               ,403.00         ,413,1,0
4.1.4,Descuento 3 - Intereses No Cubiertos,DESCUENTO 3 - INT NO CUBIERTOS          ,403.01         ,414,1,0
4.2.,OTROS INGRESOS,,,42,0,0
4.2.1,Otros Ingresos,OTROS INGRESOS                          ,404.09         ,421,1,0
4.2.2,Recuperacion Fact. Castigadas,RECUPERACION FACT. CASTIGADAS           ,405.00         ,422,1,0
4.2.3,Intereses Ganados  Cta. Ahorro,INTERESES GANADOS  CTA. AHORRO          ,406.00         ,423,1,0
4.2.4,Intereses Ganados En Inversion,INTERESES GANADOS EN INVERSION          ,406.10         ,424,1,0
4.2.5,Premium En Bonos,PREMIUM EN BONOS                        ,407            ,425,1,0
5.,GASTOS,,,5,0,1
5.1.,GASTOS ADMINISTRATIVOS Y GENERALES,,,51,0,1
5.1.01,Salarios,SALARIOS                                ,501.00         ,5101,1,1
5.1.02,Vacaciones,VACACIONES                              ,502.00         ,5102,1,1
5.1.03,Xiii Mes,XIII MES                                ,503.00         ,5103,1,1
5.1.04,Seguro Social Patronal,SEGURO SOCIAL PATRONAL                  ,504.00         ,5104,1,1
5.1.05,Seguro Educativo Patronal,SEGURO EDUCATIVO PATRONAL               ,505.00         ,5105,1,1
5.1.06,Prima De Riesgo Profesional,PRIMA DE RIESGO PROFESIONAL             ,506.00         ,5106,1,1
5.1.07,Bonificaciones,BONIFICACIONES                          ,507.00         ,5107,1,1
5.1.08,Indemnizacion,INDEMNIZACION                           ,508.00         ,5108,1,1
5.1.09,Preaviso,PREAVISO                                ,508.01         ,5109,1,1
5.1.10,Recargo,RECARGO                                 ,508.02         ,5110,1,1
5.1.11,Prima De Antiguedad,PRIMA DE ANTIGUEDAD                     ,509.00         ,5111,1,1
5.1.12,Telefono,TELEFONO                                ,510.01         ,5112,1,1
5.1.13,Celular,CELULAR                                 ,510.02         ,5113,1,1
5.1.14,"Timbres, Papel Sellado Y Estam","TIMBRES, PAPEL SELLADO Y ESTAM          ",511.00         ,5114,1,1
5.1.15,Gastos Notariales,GASTOS NOTARIALES                       ,512.00         ,5115,1,1
5.1.16,Gastos Legales,GASTOS LEGALES                          ,513.00         ,5116,1,1
5.1.17,Honorarios Profesionales,HONORARIOS PROFESIONALES                ,517.00         ,5117,1,1
5.1.18,Auditoria,,,5118,1,1
5.1.19,Honorarios Legales,HONORARIOS LEGALES                      ,518.00         ,5119,1,1
5.1.20,Gastos De Representacion,GASTOS DE REPRESENTACION                ,519.00         ,5120,1,1
5.1.21,Capacitacion Y Adiestramiento,CAPACITACION Y ADIESTRAMIENTO           ,520.00         ,5121,1,1
5.1.22,Seguros,SEGUROS                                 ,521.00         ,5122,1,1
5.1.23,Utiles De Oficina,UTILES DE OFICINA                       ,523.00         ,5123,1,1
5.1.24,Enseres Menores,ENSERES MENORES                         ,524.00         ,5124,1,1
5.1.25,Gastos De Cuotas Y Suscripcion,GASTOS DE CUOTAS Y SUSCRIPCION          ,525.00         ,5125,1,1
5.1.26,Gasto De Mensajeria,GASTO DE MENSAJERIA                     ,526.00         ,5126,1,1
5.1.27,Gasto De Transporte,GASTO DE TRANSPORTE                     ,527.00         ,5127,1,1
5.1.28,Gasto De Viajes Y Viaticos,GASTO DE VIAJES Y VIATICOS              ,527.01         ,5128,1,1
5.1.29,Alquileres,ALQUILERES                              ,528.00         ,5129,1,1
5.1.30,Alquiler Del Local,ALQUILER DEL LOCAL                      ,528.01         ,5130,1,1
5.1.31,Alq.de Mobiliaria Y Equipo,ALQ.DE MOBILIARIA Y EQUIPO              ,528.02         ,5131,1,1
5.1.32,Alquiler De Automovil,ALQUILER DE AUTOMOVIL                   ,528.03         ,5132,1,1
5.1.33,Gastos De Comision,GASTOS DE COMISION                      ,531.00         ,5133,1,1
5.1.34,Gastos De Publicidad,GASTOS DE PUBLICIDAD                    ,532.00         ,5134,1,1
5.1.35,Atencion Y Cortesia,ATENCION Y CORTESIA                     ,533.00         ,5135,1,1
5.1.36,Gastos De Comunicacion,GASTOS DE COMUNICACION                  ,534.00         ,5136,1,1
5.1.37,Gastos De Fotocopiado,GASTOS DE FOTOCOPIADO                   ,535.00         ,5137,1,1
5.1.38,Gastos De Feci,GASTOS DE FECI                          ,538.00         ,5138,1,1
5.1.39,Gasto De Comisiones Bancarias,GASTO DE COMISIONES BANCARIAS           ,539.00         ,5139,1,1
5.1.40,Mant.eq.computo Soporte Tecnic,MANT.EQ.COMPUTO SOPORTE TECNIC          ,540.00         ,5140,1,1
5.1.41,Mant. Equipo De Oficina,MANT. EQUIPO DE OFICINA                 ,540.01         ,5141,1,1
5.1.42,Aire Acondicionado,AIRE ACONDICIONADO                      ,544.00         ,5142,1,1
5.1.43,Seguridad,SEGURIDAD                               ,545.00         ,5143,1,1
5.1.44,Miscelaneos,MISCELANEOS                             ,546.00         ,5144,1,1
5.1.45,Reparaciones,REPARACIONES                            ,546.01         ,5145,1,1
5.1.46,Gastos De Aseo Y Cafeteria,GASTOS DE ASEO Y CAFETERIA              ,546.02         ,5146,1,1
5.1.47,Dietas,DIETAS                                  ,547.00         ,5147,1,1
5.1.48,Agua,AGUA                                    ,548.00         ,5148,1,1
5.1.49,Estacionamiento,ESTACIONAMIENTO                         ,549.00         ,5149,1,1
5.1.50,Amortizacion De Gasto De Org.,AMORTIZACION DE GASTO DE ORG.           ,550.00         ,5150,1,1
5.1.51,Electricidad,ELECTRICIDAD                            ,551.00         ,5151,1,1
5.1.52,Perdida En Venta Activo Fijo,PERDIDA EN VENTA ACTIVO FIJO            ,552.00         ,5152,1,1
5.1.53,Impuesto Sobre Renta Empresa,IMPUESTO SOBRE RENTA EMPRESA            ,553.00         ,5153,1,1
5.1.54,Gasto De Junta Directiva,GASTO DE JUNTA DIRECTIVA                ,554.00         ,5154,1,1
5.1.55,Gasto De I.t.b.m (7%),GASTO DE I.T.B.M (7%)                   ,555.00         ,5155,1,1
5.1.56,Mant. Y Rep. De Equipo Rodante,MANT. Y REP. DE EQUIPO RODANTE          ,556.00         ,5156,1,1
5.1.57,Beneficio A Empleados,BENEFICIO A EMPLEADOS                   ,558.00         ,5157,1,1
5.1.58,Participacion En Utilidades,PARTICIPACION EN UTILIDADES             ,558.01         ,5158,1,1
5.1.59,Gastos De Emision De Bonos,GASTOS DE EMISION DE BONOS              ,559.00         ,5159,1,1
5.1.60,Gastos De Admon. De Fideicomis,GASTOS DE ADMON. DE FIDEICOMIS          ,559.01         ,5160,1,1
5.1.61,Brindis Y Agasajos,BRINDIS Y AGASAJOS                      ,560.00         ,5161,1,1
5.1.62,Donacion,DONACION                                ,561.00         ,5162,1,1
5.2.,GASTO IMPUESTOS,,,52,0,1
5.2.1,Impuestos Municipales,IMPUESTOS MUNICIPALES                   ,514.00         ,521,1,1
5.2.2,Intereses Pagados,INTERESES PAGADOS                       ,514.01         ,522,1,1
5.2.3,Impuesto De Tasa Unica,IMPUESTO DE TASA UNICA                  ,515.00         ,523,1,1
5.2.4,Impuesto De Aviso De Operacion,IMPUESTO DE AVISO DE OPERACION          ,516.00         ,524,1,1
5.3.,GASTO DEPRECIACION Y AMORTIZACION,,,53,0,1
5.3.1,Gasto De Depreciacion,GASTO DE DEPRECIACION                   ,529.00         ,531,1,1
5.3.2,Amortizacion De Mejoras,AMORTIZACION DE MEJORAS                 ,530.00         ,532,1,1
5.4.,GASTO INTERESES,,,54,0,1
5.4.1,Intereses Pagados,INTERESES PAGADOS                       ,537.00         ,541,1,1
5.4.10,Int Pag Bonos I Emis Serie F,INT PAG BONOS I EMIS SERIE F            ,537.09         ,5410,1,1
5.4.11,Int Pag Bonos I Emis Serie G,INT PAG BONOS I EMIS SERIE G            ,537.10         ,5411,1,1
5.4.12,Int Pag Bonos I Emis Serie H,INT PAG BONOS I EMIS SERIE H            ,537.11         ,5412,1,1
5.4.13,Intereses Por Sobregiro,INTERESES POR SOBREGIRO                 ,541.00         ,5413,1,1
5.4.2,Int Pag Bonos I Emis Serie A,INT PAG BONOS I EMIS SERIE A            ,537.01         ,542,1,1
5.4.3,Intereses Pagado Repo,INTERESES PAGADO REPO                   ,537.02         ,543,1,1
5.4.4,Int Pagad Bonos I Emis Serie B,INT PAGAD BONOS I EMIS SERIE B          ,537.03         ,544,1,1
5.4.5,Int Pag Bonos I Emis Serie C,INT PAG BONOS I EMIS SERIE C            ,537.04         ,545,1,1
5.4.6,Int Pag Bonos I Emis Serie D,INT PAG BONOS I EMIS SERIE D            ,537.05         ,546,1,1
5.4.7,Int Pag Bono Ii Emis Venc 2016,INT PAG BONO II EMIS VENC 2016          ,537.06         ,547,1,1
5.4.8,Intereses Pagados Vcns,INTERESES PAGADOS VCNS                  ,537.07         ,548,1,1
5.4.9,Int Pag Bonos I Emis Serie E,INT PAG BONOS I EMIS SERIE E            ,537.08         ,549,1,1
5.5.,GASTO PROVISIONES,,,55,0,1
5.5.1,Cuentas Malas,CUENTAS MALAS                           ,543.00         ,551,1,1
5.6.,GASTO BONOS,,,56,0,1
5.6.1,Bono De Estructuracion,BONO DE ESTRUCTURACION                  ,557.00         ,561,1,1
5.6.2,Bono De Produccion,BONO DE PRODUCCION                      ,557.01         ,562,1,1
5.7.,OTRAS PERDIDAS,,,57,0,1
5.7.1,Perdidas En Venta De Cartera,PERDIDAS EN VENTA DE CARTERA            ,562.00         ,571,1,1
5.8.,OTROS GASTOS,,,58,0,1
5.8.1,Cargos Bancarios,CARGOS BANCARIOS                        ,542.00         ,581,1,1
5.8.2,Gastos No Deducibles,GASTOS NO DEDUCIBLES                    ,536.00         ,582,1,1
5.8.3,Otros Gastos Anteriores,OTROS GASTOS ANTERIORES                 ,599.00         ,583,1,1
5.8.4,Otros,OTROS                                   ,599.99         ,584,1,1
5.8.5,Int.morosidad Pend Cobro (db),INT.MOROSIDAD PEND COBRO (DB)           ,701.01         ,585,1,1
5.8.6,Int. Morosidad (pas),INT. MOROSIDAD (PAS)                    ,703.01         ,586,1,1
5.8.7,Balance De Devolucion,BALANCE DE DEVOLUCION                   ,999.01         ,587,1,1
