,,,,,,,,,,,,,,,,,
,,,,,,,,,,,,,,,,Fecha:,2/15/2017
,,,,,,,,,,,,,,,,,
,,,,,,,,,REPORTE DE CEDENTES,,,,,,,,
,,,,,,,,,,,,,,,,,
,,,,,,,,,,,,,,,,,
,NOMBRE,,,,REPRESENTANTE,,,TELEFONO,FAX,DIRECCION,,CR. LIMITE,,RUC,,,
,1,2,3,4,5,6,7,8,9,10,11,12,13,14,,,
1,EMPRESA CLIENTE DE REFERENCIA,,,,REPRESENTANTE CLIENTE DE REFERENCIA,,,202-7597,202-7598,"PLAZA NEW YORK, CALLE 50",,,1.00 ,1-2-8 D.V. 00,,,
2,"MEDIPAN, S.A.",,,,Emilio Ernesto Sucre Quiros,,,261-8049/8761,261-7845,"Calle José Guillermo Batalla Edif. Berenice, Local 1 Planta Baja Urb. Herbruger",,,"350,000.00 ",76640-6763-0010 D.V.   ,,,
3,"INDUSTRIAS METALICAS CORONADO, S.A.",,,,Jairo Lopez Lopez,,,240-1893,240-1893,"La Entrada de Coronado, Chame",,,1.00 ,365836-12488-1 D.V. 83,,,
4,"CONSTRUCTORA CHURUBE, S.A.",,,,Heriberto Martinez Rodriguez,,,278 1845/1948,278 1845,Vista Hermosa Edificio Centro Comercial Local 3A,,,1.00 ,539667-1017301-1 D.V. 88,,,
5,"C.G. DE HASETH & CIA., S.A.",,,,Christiaan G. de Haseth Linares,,,224-7000/9644,224-9655,VIA CINCUENTENARIO FINAL DE HASETH PLAZA,,,"500,000.00 ",8631-49-572 D.V. 19,,,
6,EUCLIDES VASQUEZ HERNANDEZ,,,,Euclides Vasquez Hernandez,,,66168433,,LAS TABLAS,,,1.00 ,7-100-222 D.V. 68,,,
7,VICTOR MANUEL EPIFANIO MALPASSI,,,,Victor Manuel Epifanio Malpassi,,,66157967,,LAS TABLAS,,,1.00 ,8-304-21 D.V. 28,,,
8,JAIME HERRERA,,,,JAIME HERRERA,,,,,LAS TABLAS,,,1.00 ,7-91-1865 D.V. 01,,,
9,"TREBOL SERVICES, INC.",,,,Ricardo Enrique Selles De La Guardia,,,391-9448,391-9447,"Parque Lefevre Calle F Casa No.4 , a un lado de Proaire, S.A",,,"250,000.00 ",318866-50656-2 D.V. 55,,,
10,HIPOLITO NORIEL GALLARDO REGALADO,,,,HIPOLITO NORIEL GALLARDO REGALADO,,,,,LAS TABLAS,,,1.00 ,7-119-487 D.V. 94,,,
11,"R.J. INVERSIONES, S.A.",,,,Darko Jesus Stipeh ,,,399-8773,213-1820,"San Francisco, Calle 70, Edif Taimati No.10",,,1.00 ,335662-56266-60 D.V. 55,,,
12,Carlos Iván Villalaz Williams,,,,Carlos Iván Villalaz Williams,,,960-9815,960-9810,"SAN JOSE, LAS TABLAS, PROV LOS SANTOS",,,1.00 ,8-295-768 D.V. 4 ,,,
13,Fernando Agustín González Alveo,,,,Fernando Agustín González Alveo,,,,,CHORRERA,,,1.00 ,8-715-2432 D.V. 80,,,
14,JOSE JUAN RIVERA VASQUEZ,,,,JOSE JUAN RIVERA VASQUEZ,,,,,CHITRE,,,0.00 ,6-53-362 D.V. 59,,,
15,Francisco Onofre Vasquez Hernandez,,,,Francisco Onofre Vasquez Hernandez,,,,,Santiago,,,0.00 ,7-100-246 D.V. 35,,,
16,Eufemio Nieto Gutierrez,,,,Eufemio Nieto Gutierrez,,,,,Los Santos,,,0.00 ,7-61-319 D.V. 1 ,,,
17,"ELLIVIR, S.A.",,,,Adela Virginia Tapia de Martínez,,,260-4394,391-2007,"Bethania, La Gloria, El Avance No. 2 Casa No. 7",,,0.00 ,425937-411202-1 D.V. 30,,,
18,Ronald Antonio Mendieta Villarreal,,,,Ronald Antonio Mendieta Villarreal,,,,,Las Tablas,,,1.00 ,7-109-329 D.V. 26,,,
19,Luis Antonio Solis Pimentel,,,,Luis Antonio Solís Pimentel,,,,,Tonosí,,,1.00 ,7-704-2229 D.V. 5 ,,,
20,Severino Cortez Cortez,,,,Severino Cortez Cortez,,,,,Las Tablas,,,1.00 ,7-70-886 D.V. 86,,,
21,Marcelino Antonio Mudarra Velasquez,,,,Marcelino Antonio Mudarra Velasquez,,,,,TONOSÍ,,,0.00 ,7-91-751 D.V. 81,,,
22,ADRIANA SOLIS RAMOS,,,,ADRIANA SOLIS,,,,,LAS CRUCES,,,0.00 ,6-59-571 D.V. 98,,,
23,"Corporación Quality Services, Sdad. Ltda.",,,,Javier Enrique Fuentes Serrano,,,239-3030,239-3030,Camino Real San Antonio Casa F-20,,,1.00 ,352-692700-1 D.V.   ,,,
24,ADDIEL VERGARA MORALES,,,,ADDIEL VERGARA MORALES,,,,,LAS TABLAS,,,0.00 ,7-121-239 D.V. 2 ,,,
25,ARQUIMEDES OMAR SAMANIEGO,,,,ARQUIMEDES OMAR SAMANIEGO,,,,,LAS TABLAS,,,0.00 ,7-104-699 D.V. 40,,,
26,"DISEÑOS ARQUITECTONICOS Y CONSTRUCCIONES, S.A.",,,,Raúl Doria Camaño,,,,,,,,1.00 ,335046-56059-48 D.V.   ,,,
27,"HY-TOP CONSTRUCCIONES Y DISEÑOS, S.A.",,,,Juan De Dios Vásquez,,,233-1114,233-1114,"Chanis, Urb. Altos de Romeral Calle Cadiz Casa Nº 657",,,1.00 ,575672-1168652-1 D.V.   ,,,
28,JOSE MANUEL DELGADO CARRASCO,,,,JOSE MANUEL  DELGADO CARRASCO,,,,,,,,0.00 ,7-40-150 D.V. 47,,,
29,VALENTIN RODRIGUEZ GUTIERREZ,,,,VALENTIN RODRIGUEZ GUTIERREZ,,,,,,,,0.00 ,6-43-435 D.V. 12,,,
30,CRISTOBAL SORIANO CABALLERO,,,,CRISTOBAL SORIANO CABALLERO,,,,,,,,0.00 ,7-93-238 D.V. 61,,,
31,DIOMEDES A. DOMINGUEZ G.,,,,DIOMEDES A. DOMINGUEZ G.,,,,,,,,0.00 ,7-101-700 D.V. 1 ,,,
32,DOMINGO E. DIAZ CASTILLO,,,,DOMINGO E. DIAZ CASTILLO,,,,,,,,0.00 ,7-122-547 D.V. 38,,,
33,"SUPTEC, S.A.",,,,Eusebio Genaro Cajar Luzcando,,,226-3321,226-3321,"Via Cincuentenario, diagonal al Centro de Convenciones Atrapa, Oficina 24-B",,,1.00 ,344355-59453-2 D.V.   ,,,
34,BENJAMIN SORIANO,,,,BENJAMIN SORIANO,,,,,,,,0.00 ,7-70-186 D.V. 37,,,
35,ORLANDO HERMINIO GONZALEZ CEDEÑO,,,,ORLANDO HERMINIO GONZALEZ CEDEÑO,,,,,,,,0.00 ,7-112-508 D.V. 3 ,,,
36,ECOLASTICO MONTENEGRO MORENO,,,,ECOLASTICO MONTENEGRO MORENO,,,,,,,,0.00 ,7-67-48 D.V. 70,,,
37,"Panama Consulting and Services, S.A.",,,,David Omar Vargas Velez,,,261-1100,261-1111,Ave 12 de Octubre y Ave 5C Norte Nº 5E,,,1.00 ,436985-508984-1 D.V. 16,,,
38,Aram Balwat Cisneros Naylor,,,,Aram Balwat Cisneros Naylor,,,390-1550,.,Ave Ernesto T. Lefevre PH Royal Park ofic PB 16,,,1.00 ,8-403-917 D.V. 6 ,,,
39,SANDRA VERGARA CASTILLO,,,,SANDRA VERGARA CASTILLO,,,,,,,,0.00 ,7-703-2038 D.V. 27,,,
40,"CELMEC, S.A.",,,,Ernesto Richa Viu,,,280-5000,280-5002,Villa Zaita,,,1.00 ,10813-439-575 D.V.   ,,,
41,OLMEDO BARRIOS ZAMBRANO,,,,OLMEDO BARRIOS ZAMBRANO,,,,,LAS TABLAS,,,0.00 ,7-59-833 D.V. 40,,,
42,Adolfo Brockmann Cervantes,,,,Adolfo Brockmann Cervantes,,,399-0113,,Tocumen 1ra calle Entrando a la Nueva Barriada local 27 Porton Azul,,,1.00 ,E-8-48001 D.V.   ,,,
43,"Rosanro, S.A.",,,,Maria del Carmen Torrente de Mantovani,,,278-2010,278-2009,"Vía Fernández de Cordoba, Plaza Cordoba Oficina  7",,,1.00 ,398449-220990-1 D.V. 60,,,
44,"Matelec, S.A.",,,,Ernesto Richa Viu,,,280-5000,280-5001,"Las Cumbres Villa Zaita, Edif. Celmec, Panama",,,1.00 ,359222-64847-2 D.V.   ,,,
45,"Línea Viva Ingenieros Panama, S.A.",,,,Hernando Roque Guerrero Carriazo,,,261-3931,224-1552,"Calle 2da, Carrasquilla, Antigua Bodega de Gas Natural Fenosa",,,1.00 ,403048-250405-1 D.V. 07,,,
46,MILAGROS MARLENIS AGUILAR TEJADA,,,,MILAGROS MARLENIS AGUILAR TEJADA,,,,,,,,1.00 ,7-707-6 D.V. 84,,,
47,MIGUEL BARRIA VARGAS,,,,MIGUEL BARRIA VARGAS,,,,,,,,1.00 ,7-101-274 D.V. 24,,,
48,EUDELIO CHAVEZ REINA,,,,EUDELIO CHAVEZ REINA,,,,,GUARARE,,,1.00 ,9-189-167 D.V. 27,,,
49,"PRODUCTOS Y SERVICIOS MEDICOS, S.A. (PROSEMED)",,,,JOSE FERNANDO DE GRACIA,,,214-3944,214-3820,"Vía Argentina, Calle G-1 Edificio Don Bosco, Local No. 2",,,1.00 ,382188-127048-1 D.V. 76,,,
50,JULIO EDUARDO DE FRIAS MENDIETA,,,,JULIO EDUARDO DE FRIAS MENDIETA,,,6673-3642,,CHITRE,,,1.00 ,6-704-1710 D.V. 67,,,
51,EDGAR CERVANTES MONTENEGRO OSORIO,,,,EDGAR CERVANTES MONTENEGRO OSORIO,,,,,SONA,,,1.00 ,6-713-1689 D.V. 36,,,
52,DIMAS ELIECER ACEVEDO BARAHONA,,,,DIMAS ELIECER ACEVEDO BARAHONA,,,,,PARITA,,,1.00 ,7-110-489 D.V. 27,,,
53,ANDRES YOEL DOMINGUEZ DOMINGUEZ,,,,ANDRES YOEL DOMINGUEZ DOMINGUEZ,,,,,LAS TABLAS,,,1.00 ,7-704-2001 D.V. 70,,,
54,DAIRYS YARIELA VERGARA CASTILLO,,,,DAIRYS YARIELA VERGARA CASTILLO,,,,,LAS TABLAS,,,1.00 ,7-703-808 D.V. 06,,,
55,ANTONIO RIVERA RIOS,,,,ANTONIO RIVERA RIOS,,,,,SANTA ANA,,,1.00 ,7-65-816 D.V. 24,,,
56,RUBEN DARIO RODRÍGUEZ PERALTA,,,,RUBEN DARIO RODRÍGUEZ PERALTA,,,,,MACARACAS,,,1.00 ,7-92-1119 D.V. 54,,,
57,RICHARD ALBERTO CESPEDES CASTILLO,,,,RICHARD ALBERTO CESPEDES CASTILLO,,,,,,,,1.00 ,7-88-1022 D.V. 83,,,
58,ELVIS RICARDO GONZALEZ,,,,ELVIS RICARDO GONZALEZ,,,,,SESTIADERO,,,1.00 ,7-97-910 D.V. 51,,,
59,D Todo Corp,,,,Humberto Manuel Arguello Arguello,,,215-1076,315-0449,Centro Comercial Bal Harbour Via Italia Punta Paitilla M-#33,,,1.00 ,603206-1291481-1 D.V.   ,,,
60,AGAPITO PINTO ESCOBAR,,,,AGAPITO PINTO ESCOBAR,,,,,SONA,,,1.00 ,6-49-1515 D.V. 8 ,,,
61,FIDEL AGUSTIN ARAUZ FLORES,,,,FIDEL AGUSTIN ARAUZ FLORES,,,,,PARITA,,,1.00 ,6-57-2176 D.V. 88,,,
62,ERIC ERNESTO DOMINGUEZ DOMINGUEZ,,,,ERIC ERNESTO DOMINGUEZ DOMINGUEZ,,,,,LAS TABLAS,,,1.00 ,7-702-1190 D.V. 84,,,
63,"Empresas Barahona y Castro, S.A. ( EMBAYCA, S.A.)",,,,Jose Domingo Castro Bustamante,,,254-1237,254-0892,"Via Interamericana, Distrito de Chame, Urb La Paz de Chame, Edif. 6 #37",,,1.00 ,316775-49996-8 D.V. 36,,,
64,"Panacol Business, S.A.",,,,Rolando Enrique Garcia Camargo,,,390-9096,390-9097,Albrook pasando el  aeropuerto Marcos Guelabert Plaza Albrook local 2 Arriba de la  Farm. Arrocha,,,1.00 ,464392-680575-1 D.V. 89,,,
65,BREDIO ANTONIO NIETO VASQUEZ,,,,BREDIO ANTONIO NIETO VASQUEZ,,,,,LAS TABLAS,,,1.00 ,7-91-1029 D.V. 28,,,
66,ARIEL ELPIDIO GARCIA GONZALEZ,,,,ARIEL ELPIDIO GARCIA GONZALEZ,,,,,GUARARE,,,1.00 ,7-103-225 D.V. 17,,,
67,"Ingeniería, Consultoría y Construcciones, S.A. (INGHESE)",,,,Marcos Duarte Nocua,,,996-5490,970-0529,"Chitré, Herrera,  Diagonal a Hotel Los Guayacanes",,,1.00 ,395057-198806-1 D.V. 31,,,
68,YESENIA ISABEL RIOS COLLADO,,,,YESENIA ISABEL RIOS COLLADO,,,244-1050,6673-6812,La Chorrera La Pesa Nº Casa Nº0321,,,1.00 ,8-415-536 D.V. 7 ,,,
69,MOISES BATISTA BALLESTEROS,,,,MOISES BATISTA BALLESTEROS,,,,,LAS TABLAS,,,1.00 ,7-6-6291 D.V. 17,,,
70,OLEGARIO PEREZ MORENO,,,,OLEGARIO PEREZ MORENO,,,,,MACARACAS,,,1.00 ,7-700-128 D.V. 02,,,
71,PEDRO IDIEL JAEN BARRIOS,,,,PEDRO IDIEL JAEN BARRIOS,,,,,LASTABLAS,,,1.00 ,7-701-1091 D.V. 67,,,
72,BENIGNO JACOB FRIAS GUTIERREZ,,,,BANIGNO JACOB FRIAS GUTIERREZ,,,,,TONOSÍ,,,1.00 ,8-402-62 D.V. 42,,,
73,CARLOS EMILIO NIETO DELGADO,,,,CARLOS EMILIO NIETO DELGADO,,,,,LAS TABLAS,,,1.00 ,7-700-1810 D.V. 78,,,
74,AGAPITO ANTONIO MENDIETA PEREZ,,,,AGAPITO ANTONIO MENDIETA PEREZ,,,,,LA COLORADA,,,1.00 ,7-84-316 D.V. 28,,,
75,"CIVIL WORK, S.A.",,,,EDITH GARCIA DE CESPEDES,,,269-8593,2699635,VIA ESPAÑA 46-54,,,1.00 ,472453-718163-1 D.V. 95,,,
76,VIODELDA MORALES DE SORIANO,,,,VIODELDA MORALES DE SORIANO,,,,,LAS TABLAS,,,1.00 ,7-84-753 D.V. 23,,,
77,ARISTIDES GONZALEZ DOMINGUEZ,,,,ARISTIDES GONZALEZ DOMINGUEZ,,,,,LAS TABLAS,,,1.00 ,7-100-803 D.V. 81,,,
78,VILMA DARIELYS LOPEZ DOMINGUEZ,,,,VILMA DARIELYS LOPEZ DOMINGUEZ,,,,,"RIO PIÑAS, VERAGUAS",,,1.00 ,7-706-811 D.V. 18,,,
79,EDWIN ALEXIS CABALLERO CASTRO,,,,EDWIN ALEXIS CABALLERO CASTRO,,,,,LAS TABLAS,,,1.00 ,9-202-639 D.V. 35,,,
80,EUCLIDES ARTURO GONZALEZ DOMINGUEZ,,,,EUCLIDES ARTURO GONZALEZ DOMINGUEZ,,,,,GUARARE,,,1.00 ,7-104-829 D.V. 62,,,
81,D & D Mantenimiento S.A.,,,,Clarissa del Carmen Guillermo Escobar,,,3965463,,Las Cumbres Residencial Alhambra cl E casa 92,,,1.00 ,466354-690818-1 D.V. 14,,,
82,ADRIANA CASTILLO CASTILLO,,,,ADRIANA CASTILLO CASTILLO,,,,,RIO PIÑA,,,1.00 ,2-706-1630 D.V. 59,,,
83,ALVIS ANGELO RICORD,,,,ALVIS ANGELO RICORD,,,,,LAS TABLAS,,,1.00 ,2-752-2289 D.V. 49,,,
84,"GRUPO AGROINDUSTRIAL SAN JOSÉ, S.A.",,,,CARLOS IVAN VILLALAZ WILLIAMS,,,6070-3031,.,"Los Santos, Las Tablas",,,1.00 ,431443-449970-1 D.V. 67,,,
85,RAMON ARIEL CEDEÑO BATISTA,,,,RAMON ARIEL CEDEÑO BATISTA,,,,,LAS TABLAS,,,1.00 ,7-94-158 D.V. 88,,,
86,"Servicios Rojas, S.A.",,,,Arturo Iván Rojas Vivero,,,229-8840,6612-9792,"Bethania, Ave la Paz Villa Caceres Chalet G-110",,,1.00 ,286696-42125-9 D.V. 68,,,
87,DELFINA MEDINA DE HERRERA,,,,DELFINA MEDINA DE HERRERA,,,,,LAS TABLAS,,,1.00 ,7-20-975 D.V. 54,,,
88,"Industrias Constructec, S.A.",,,,Carlos Contreras Echandi,,,392-0432,392-0433,"San Miguelito Urb. Industrial la Esperanza, Local 50",,,1.00 ,577508-1177823-1 D.V. 13,,,
89,LUIS ALBERTO VERGARA CASTILLO,,,,LUIS ALBERTO VERGARA CASTILLO,,,,,ATALAYA,,,1.00 ,7-707-439 D.V. 01,,,
90,CORINA ARGELIS PEREZ DE DOMINGUEZ,,,,CORINA ARGELIS PEREZ DE DOMINGUEZ,,,,,LAS TABLAS,,,1.00 ,7-72-2663 D.V. 42,,,
91,JAIME SORIANO ESCUDERO,,,,JAIME SORIANO ESCUDERO,,,,,GUARARE,,,1.00 ,7-60-980 D.V. 27,,,
92,"Construcciones de Ingenieria, S.A,",,,,Yesenia Isabel Rios Collado,,,244-1050,244-1050,"La Chorrera, La Herradura Nº 1 casa 4123",,,1.00 ,571953-1152110-1 D.V. 2 ,,,
93,DIOGENES OSCAR DE FRIAS DE LEON,,,,DIOGENES OSCAR DE FRIAS DE LEON,,,,,LA ESPIGADILLA,,,1.00 ,7-88-737 D.V. 55,,,
94,DIANA CAROLINA GARCIA MEDINA,,,,DIANA CAROLINA GARCIA MEDINA,,,,,LA COLORADA,,,1.00 ,7-706-443 D.V. 44,,,
95,EDWARD CERVANTES MONTENEGRO OSORIO,,,,EDWARD CERVANTES MONTENEGRO OSORIO,,,,,"SONA, SANTIAGO",,,1.00 ,6-711-320 D.V. 44,,,
96,FEDERICO ALMANZA PINZON,,,,FEDERICO ALMANZA PINZON,,,,,"LA ARENA, SONA",,,1.00 ,9-96-649 D.V. 61,,,
97,DIDIMO PIMENTEL MENDIETA,,,,DIDIMO PIMENTEL MENDIETA,,,,,LAS TABLAS,,,1.00 ,7-119-321 D.V. 3 ,,,
98,FIDEL ANTONIO RIOS RIOS,,,,FIDEL ANTONIO RIOS RIOS,,,,,"TRES QIEBRADAS, LAS TABLAS",,,1.00 ,7-72-575 D.V. 06,,,
99,VIRGILIO VERGARA VERGARA,,,,VIRGILIO VERGARA VERGARA,,,,,LOS ASIENTOS,,,1.00 ,7-69-390 D.V. 41,,,
100,FRANCISCO JAVIER VERGARA BALLESTEROS,,,,FRANCISCO JAVIER VERGARA BALLESTEROS,,,,,,,,1.00 ,7-702-708 D.V. 8 ,,,
101,JORGE ELIECER RIVERA RODRIGUEZ,,,,JORGE ELIECER RIVERA RODRIGUEZ,,,,,SANTIAGO,,,1.00 ,9-709-751 D.V. 39,,,
102,ARCENIO ACEVEDO VELASQUEZ,,,,ARCENIO ACEVEDO VELASQUEZ,,,,,MARIATO,,,1.00 ,7-105-638 D.V. 63,,,
103,ADAN NICANOR BERNAL GARCIA,,,,ADAN NICANOR BERNAL GARCIA,,,,,,,,1.00 ,8-828-1360 D.V. 77,,,
104,RAMIRO ALBERTO NAVARRO GUTIERREZ,,,,RAMIRO ALBERTO NAVARRO GUTIERREZ,,,,,LAS TABLAS,,,1.00 ,7-123-157 D.V. 94,,,
105,GREGORIO YUMY GONZALEZ SALAMIN,,,,GREGORIO YUMY GONZALEZ SALAMIN,,,,,LOS POZOS,,,1.00 ,6-49-1461 D.V. 80,,,
106,ENID RUBIELA CONCEPCION DE CORDOBA,,,,ENID RUBIELA CONCEPCION DE CORDOBA,,,,,,,,1.00 ,7-92-2170 D.V. 00,,,
107,"Construcciones y Soldaduras, S.A.",,,,Ovidio Guillermo Escobar,,,390-9096,390-9097,"Las Cumbres, Praderas del Rocio Casa 92",,,1.00 ,382326-128118-1 D.V. 18,,,
108,ROGER NORIEL DE FRIAS DE LEON,,,,ROGER NORIEL DE FRIAS DE LEON,,,,,LAS TABLAS,,,1.00 ,7-116-88 D.V. 08,,,
109,EUSTIQUIO ASCENCION BROCE VERGARA,,,,EUSTIQUIO ASCENCION BROCE VERGARA,,,,,LAS TABLAS,,,1.00 ,7-30-326 D.V. 16,,,
110,JOSE DE LOS SANTOS BURGOS GONZALEZ,,,,JOSE DE LOS SANTOS BURGOS GONZALEZ,,,,,ATALAYA,,,1.00 ,6-56-506 D.V. 83,,,
111,ADRIAN OSCAR SAMANIEGO MORENO,,,,ADRIAN OSCAR SAMANIEGO MORENO,,,,,ATALAYA,,,1.00 ,7-119-73 D.V. 38,,,
112,PLINIO PEÑA BULTRON,,,,PLINIO PEÑA BULTRON,,,,,,,,1.00 ,6-48-674 D.V. 31,,,
113,"Grupo Montenegro, S.A.",,,,Felipe Montenegro Iturralde,,,302-3998,302-3999,Via Transistmica Calle Manuel Espinosa Batista Edificio Mallol & Mallol 2do Piso,,,1.00 ,493959-797850-1 D.V. 75,,,
114,EMILIANO MORALES CASTILLO,,,,EMILIANO MORALES CASTILLO,,,,,LAS TABLAS,,,1.00 ,7-84-646 D.V. 31,,,
115,DONALD ANTONIO MELGAR DE LEON,,,,DONALD ANTONIO MALGAR DE LEON,,,,,LAS TABLAS,,,1.00 ,6-36-620 D.V. 41,,,
116,LEONIDES MORENO MELGAR,,,,LEONIDES MORENO MELGAR,,,,,LAS TABLAS,,,1.00 ,7-96-464 D.V. 95,,,
117,ARCENIO VASQUEZ MOGORUZA,,,,ARCENIO VASQUEZ MOGORUZA,,,,,,,,1.00 ,7-77-604 D.V. 62,,,
118,CARLOS ABDIEL VALDERRAMA SUCRE,,,,CARLOS ABDIEL VALDERRAMA SUCRE,,,,,,,,1.00 ,2-103-2308 D.V. 36,,,
119,VIRGILIO SAMANIEGO,,,,VIRGILIO SAMANIEGO,,,,,LAS TABLAS,,,1.00 ,7-88-376 D.V. 0 ,,,
120,VICTOR ANDRES BERNAL HERRERA,,,,VICTOR ANDRES BERNAL HERRERA,,,,,LAS TABLAS,,,1.00 ,7-707-1043 D.V. 82,,,
121,HECTOR CARDENAS VILLARREAL,,,,HECTOR CARDENAS VILLARREAL,,,,,,,,1.00 ,7-107-334 D.V. 12,,,
122,DIONEL ANTONIO AMAYA VARGAS,,,,DIONEL ANTONIO AMAYA VARGAS,,,,,LAS TABLAS,,,1.00 ,7-707-290 D.V. 70,,,
123,ALBERTO LUIS MELENDEZ,,,,ALBERTO LUIS MELENDEZ,,,,,,,,1.00 ,9-208-532 D.V. 19,,,
124,JORGE SEBASTIAN MORENO VALDES,,,,JORGE SEBASTIAN MORENO VALDES,,,,,,,,1.00 ,6-701-205 D.V. 16,,,
125,DIDIMO DELGADO CABALLERO,,,,DIDIMO DELGADO CABALLERO,,,,,LOS SANTOS,,,1.00 ,7-701-387 D.V. 15,,,
126,MANUEL PEÑA,,,,MANUEL PEÑA,,,,,,,,1.00 ,8-191-204 D.V. 59,,,
127,RUBEN RIOS,,,,RUBEN RIOS,,,,,TONOSÍ,,,1.00 ,7-72-1496 D.V. 21,,,
128,LUIS ALBERTO DE FRIAS DE LEON,,,,LUIS ALBERTO DE FRIAS DE LEON,,,,,LAS TABLAS,,,1.00 ,8-248-210 D.V. 30,,,
129,NITZIA ALEIDA PERALTA DE NIETO,,,,NITZIA ALEIDA PERALTA DE NIETO,,,,,,,,1.00 ,7-108-166 D.V. 00,,,
130,ELSA JULIETA ZARZAVILLA VERGARA,,,,ELSA JULIETA ZARZAVILLA VERGARA,,,,,,,,1.00 ,7-122-409 D.V. 40,,,
131,ALFREDO PINTO DE LEON,,,,ALFREDO PINTO DE LEON,,,,,,,,1.00 ,7-85-868 D.V. 08,,,
132,ALAIDE ISRRAEL VERGARA GONZALEZ,,,,ALAIDE ISRRAEL VERGARA GONZALEZ,,,,,LAS TABLAS,,,1.00 ,7-92-2117 D.V. 46,,,
133,ASMEL ROLANDO CORDOBA SUGASTI,,,,ASMEL ROLANDO CORDOBA SUGASTI,,,,,LAS TABLAS,,,1.00 ,7-92-383 D.V. 43,,,
134,PEDRO JOSE FRIAS DE FRIAS,,,,PEDRO JOSE FRIAS DE FRIAS,,,,,CHITRÉ,,,1.00 ,7-707-2398 D.V. 06,,,
135,"PAVECO GROUP, S.A.",,,,Ruben Del Carmen Moreno Bermudez,,,6781-2515,.,Green Bay Costa del Este,,,1.00 ,654819-1537424-1 D.V. 6 ,,,
136,ORIEL AQUILES CORREA MORENO,,,,ORIEL AQUILES CORREA MORENO,,,,,LAS TABLAS,,,1.00 ,7-118-698 D.V. 37,,,
137,"Corporación Isthmus, S.A.",,,,Anya Marilis Abrego Rivera de Dar Chalabi,,,394-2901,.,"Bella Vista Urbanización Galeria Balboa, local 308",,,1.00 ,520237-924897-1 D.V.   ,,,
138,"Panama Contractor Company, S.A.",,,,Juzzmihrt Sepúlveda Cely,,,236-0493,236-0495,"Tumba Muerto El Dorado, Plaza Aventura Oficina 554",,,1.00 ,467819-696555-1 D.V.   ,,,
139,"Importadora y Distribuidora V & N, S.A.",,,,Edonay Caballero Gomez,,,217-4874,217-4068,"Campo Limbergh, Edific Las Arcadas",,,1.00 ,538539-1012076-1 D.V. 03,,,
140,"Construcciones y Mantenimiento Industrial, S.A. (COMAINSA)",,,,Militza Zulay Trejos,,,267-9635,267-9635,"San Miguelito, San José Calle Principal",,,1.00 ,343390-59079-2 D.V. 0 ,,,
141,"Emmanuel Corporation, S.A.",,,,Angela Chanis de Murillo,,,6008-7271,.,Veranillo calle T Local 25,,,1.00 ,388554-164232-1 D.V. 59,,,
142,FRANCISCO  MORENO,,,,FRANCISCO MORENO,,,,,LAS TABLAS,,,1.00 ,7-121-511 D.V. 91,,,
143,MARCOS ENRIQUE ZARZAVILLA VERGARA,,,,MARCOS ENRIQUE ZARZAVILLA VERGARA,,,,,LAS TABLAS,,,1.00 ,7-112-67 D.V. 31,,,
144,ERIKA ITZEL MEDINA DE VERGARA,,,,ERIKA ITZEL MEDINA DE VERGARA,,,,,LAS TABLAS,,,1.00 ,7-117-82 D.V. 58,,,
145,"Panama Opportunities, Inc.",,,,Mario Pezzotti Hawkins,,,6617-1710,.,Corregimiento de San Francisco Calle 74. Golf Plaza Local Nº 14-B,,,1.00 ,470329-707595-1 D.V. 99,,,
146,MANUEL OCTAVIO ESPINO CEDEÑO,,,,MANUEL OCTAVIO ESPINO CEDEÑO,,,,,LAS TABLAS,,,1.00 ,7-700-795 D.V. 40,,,
147,ADAN VERGARA CEDEÑO,,,,ADAN VERGARA CEDEÑO,,,,,LAS TABLAS,,,1.00 ,7-66-968 D.V. 53,,,
148,FULVIA HERRERA MORALES DE VERGARA,,,,FULVIA HERRERA MORALES DE VERGARA,,,,,LAS TABLAS,,,1.00 ,7-71-427 D.V. 00,,,
150,DENIA DELIS CORTEZ DE ACEVEDO,,,,DENIA DELIS CORTEZ DE ACEVEDO,,,,,LAS TABLAS,,,1.00 ,7-96-258 D.V. 11,,,
151,"Tecnología Industrial Internacional, S.A.",,,,Eric Osvaldo Santos Rojas,,,253-6319,.,La Chorrera Calle 6ta Sur #3502,,,1.00 ,373023-64579-1 D.V. 50,,,
152,JORGE EUCLIDES ACEVEDO CASTRO,,,,JORGE EUCLIDES ACEVEDO CASTRO,,,,,LAS TABLAS,,,1.00 ,7-702-48 D.V. 56,,,
153,CARLOS ROBERTO GIRON BARRIOS,,,,CARLOS ROBERTO GIRON BARRIOS,,,,,LAS TABLAS,,,1.00 ,7-118-280 D.V. 57,,,
154,"MENTES BRILLANTES, S.A.",,,,Gustavo Alfredo Perez Díaz,,,958-7025,.,"Santiago de Veraguas, Barriada la Esmeralda, Cl Central, casa Nº 2H",,,1.00 ,592214-1246285-1 D.V. 40,,,
155,"Distribuidora Arval, S.A.",,,,Arnulfo Orlando Valderrama Villar,,,269-6926,.,Bella Vista Edif Estela Torre B PB,,,1.00 ,284622-41639-115 D.V. 63,,,
156,"Estudios de Ingenieria, S.A.",,,,Manuel Antonio Rodríguez Rettally,,,224-0057 / 6492-7696,.,"San Francisco, Cll Vía Porras,  Edf. PH Golf View. Apto 5B",,,1.00 ,121277-589-437 D.V. 19,,,
157,ARIEL HUMBERTO CASTILLO NUÑEZ,,,,ARIEL HUMBERTO CASTILLO NUÑEZ,,,,,LAS TABLAS,,,1.00 ,6-80-698 D.V. 20,,,
158,"BEROTZ PANAMA, S.A.",,,,Francisco Javier Aranguren Galdos,,,391-8239,391-8238,Torre Delta Antiguo Banco de Boston P-4 Oficina 403,,,1.00 ,558176-1095130-1 D.V. 3 ,,,
159,JENNY JANETH ARAUZ MORALES,,,,JENNY JANETH ARAUZ MORALES,,,,,"DAVID, CHIRIQUÍ",,,1.00 ,4-724-1662 D.V. 6 ,,,
160,PORFIRIO ORTEGA SANCHEZ,,,,PORFIRIO ORTEGA SANCHEZ,,,,,"DAVID, CHIRIQUÍ",,,1.00 ,4-706-72 D.V. 28,,,
161,ISRAEL GONZALEZ GONZALEZ,,,,ISRAEL GONZALEZ GONZALEZ,,,,,"DAVID, CHIRIQUI",,,1.00 ,4-203-308 D.V. 26,,,
162,JOSEPH NIVARDO GONZALEZ,,,,JOSEPH NIVARDO GONZALEZ,,,,,,,,1.00 ,4-740-1609 D.V. 44,,,
163,IVAN JAVIER LEZCANO,,,,IVAN JAVIER LEZCANO,,,,,"DAVID, CHIRIQUI",,,1.00 ,4-155-244 D.V. 12,,,
164,DARYELIS LARA,,,,DARYELIS LARA,,,,,"DAVID, CHIRIQUI",,,1.00 ,4-198-864 D.V. 64,,,
165,NICOLAS ESQUIVEL DE LEON,,,,NICOLAS ESQUIVEL DE LEON,,,,,"DAVID, CHIRIQUI",,,1.00 ,4-120-2323 D.V. 0 ,,,
166,LORENZO PEREZ CIGARRUISTA,,,,LORENZO PEREZ CIGARRUISTA,,,,,LAS TABLAS,,,1.00 ,6-705-564 D.V. 6 ,,,
167,MANUELSANCHEZ CAMARGO,,,,MANUELSANCHEZ CAMARGO,,,,,"DAVID, CHIRIQUI",,,1.00 ,4-138-20 D.V. 73,,,
168,EUSTORGIO DOMINGUEZ DOMINGUEZ,,,,EUSTORGIO DOMINGUEZ DOMINGUEZ,,,,,"DAVID, CHIRIQUI",,,1.00 ,7-110-464 D.V. 79,,,
169,PAULINO SANCHEZ LEZCANO,,,,PAULINO SANCHEZ LEZCANO,,,,,"DAVID, CHIRIQUI",,,1.00 ,4-95-697 D.V. 73,,,
170,VALIELSA GONZALEZ DE COPRIZ,,,,VALIELSA GONZALEZ DE COPRIZ,,,,,"DAVID,  CHIRIQUI",,,1.00 ,4-116-2699 D.V. 84,,,
171,RICARDO ENRIQUE GONZALEZ HERRERA,,,,RICARDO ENRIQUE GONZALEZ HERRERA,,,,,,,,1.00 ,7-703-1072 D.V. 75,,,
172,LORENA DEL CARMEN MORA GONZALEZ,,,,LORENA DEL CARMEN MORA GONZALEZ,,,,,"DAVID, CHIRIQUI",,,1.00 ,4-716-1155 D.V. 8 ,,,
173,CLEMENTE GUERRA FUENTES,,,,CLEMENTE GUERRA FUENTES,,,,,"DAVID, CHIRIQUI",,,1.00 ,4-147-1906 D.V. 34,,,
174,GERMAN CASTILLO ROBLES,,,,GERMAN CASTILLO ROBLES,,,,,LAS TABALAS,,,1.00 ,7-704-1206 D.V. 57,,,
175,RIGOBERTO OSCAR PITTI RAMIREZ,,,,RIGOBERTO OSCAR PITTI RAMIREZ,,,,,"DAVID, CHIRIQUI",,,1.00 ,4-719-522 D.V. 45,,,
176,FLORENCIO DEL CID GONZALEZ,,,,FLORENCIO DEL CID GONZALEZ,,,,,"DAVID, CHIRIQUI",,,1.00 ,4-85-835 D.V. 85,,,
177,"Construcciones e Inversiones Raghu, S.A.",,,,Adelaida Argelis Gonzalez,,,229-4595,229-4595,Edif. Vista Hermosa Local 3-E,,,1.00 ,515835-905682-1 D.V.   ,,,
178,LUIS ANTONIO GONZALEZ,,,,LUIS ANTONIO GONZALEZ,,,,,"DAVID, CHIRIQUI",,,1.00 ,4-164-144 D.V. 40,,,
179,PEDRO NEL MIRANDA PRADO,,,,PEDRO NEL MIRANDA PRADO,,,,,"DAVID, CHIRIQUI",,,1.00 ,4-194-764 D.V. 50,,,
180,MIGUEL O. MONTENEGRO REGALADO,,,,MIGUEL O. MONTENEGRO REGALADO,,,,,LAS TABLAS,,,1.00 ,7-702-2305 D.V. 11,,,
181,"AGROPECUARIA CORSA, S.A.",,,,MARITZA MARIBEL SANCHEZ CORTEZ,,,,,"DAVID, CHIRIQUI",,,1.00 ,4-712-84 D.V. 52,,,
182,EDUVILIA DELGADO VILLARREAL,,,,EDUVILIA DELGADO VILLARREAL,,,,,LAS TABLAS,,,1.00 ,7-703-2436 D.V. 16,,,
183,CARLOS ENALDO ESTRIBI AIZPURUA,,,,CARLOS ENALDO ESTRIBI AIZPURUA,,,,,"DAVID, CHIRIQUI",,,1.00 ,4-132-1636 D.V. 58,,,
184,DOMINGO GONZALEZ CABALLERO,,,,DOMINGO GONZALEZ CABALLERO,,,,,"DAVID, CHIRIQUI",,,1.00 ,4-203-556 D.V. 59,,,
185,EVELIA ARGELIS VERGARA REYES,,,,EVELIA ARGELIS VERGARA REYES,,,,,LAS TABLAS,,,1.00 ,2-68-49 D.V. 37,,,
186,"CONSTRUCTORA ERAVI, S.A.",,,,Roberto Flores Villarreal,,,236-7018,.,"Centro Comercial Plaza Aventura Mezanine Local M22, El Dorado Bethania.",,,1.00 ,489690-786066-1 D.V. 43,,,
187,KARINA M. ROSAS BERNAL,,,,KARINA M. ROSAS BERNAL,,,,,"DAVID, CHIRIQUI",,,1.00 ,4-756-1020 D.V. 12,,,
188,LUIS RICARDO RIOS,,,,LUIS RICARDO RIOS,,,,,"DAVID, CHIRIQUI",,,1.00 ,4-730-401 D.V. 81,,,
189,JUAN BAUTISTA BERNAL PERALTA,,,,JUAN BAUTISTA BERNAL PERALTA,,,,,CHITRE,,,1.00 ,7-38-573 D.V. 51,,,
190,JOSE MARCIANO GUTIERREZ OROCU,,,,JOSE MARCIANO GUTIERREZ OROCU,,,,,"DAVID, CHIRIQUI",,,1.00 ,1-25-1216 D.V. 46,,,
191,IRVING ROLANDO SANCHEZ VALDEZ,,,,IRVING ROLANDO SANCHEZ VALDEZ,,,,,"DAVID, CHIRIQUI",,,1.00 ,4-756-1582 D.V. 39,,,
192,MIGDALYS VILLARREAL,,,,MIGDALYS VILLARREAL,,,,,"DAVID, CHIRIQUI",,,1.00 ,4-153-148 D.V. 2 ,,,
193,PAUL HENRY DEL CID GRAJALES,,,,PAUL HENRY DEL CID GRAJALES,,,,,"DAVID, CHIRIQUI",,,1.00 ,4-286-11 D.V. 60,,,
194,ERIC AQUILINO GONZALEZ CABALLERO,,,,ERIC AQUILINO GONZALEZ CABALLERO,,,,,"DAVID, CHIRIQUI",,,1.00 ,4-116-2751 D.V. 0 ,,,
195,DOMINGO ACEVEDO,,,,DOMINGO ACEVEDO,,,,,LAS TABLAS,,,1.00 ,7-110-540 D.V. 64,,,
196,EVELYN LINETH GONZALEZ MIRANDA,,,,EVELYN LINETH GONZALEZ MIRANDA,,,,,"DAVID, CHIRIQUI",,,1.00 ,4-754-1639 D.V. 38,,,
197,LUIS BENJAMIN ROSAS,,,,LUIS BENJAMIN ROSAS,,,,,"DAVID, CHIRIQUI",,,1.00 ,4-123-594 D.V. 10,,,
198,"Construcciones y Administración, S.A. (COADSA)",,,,José Clemente Cespedes Cedeño,,,269-9635,269-2593,"Via España, calle 46 local 4",,,1.00 ,24139-1193-90 D.V. 76,,,
199,MARTHA ESTELLA MEDINA DE MONTENEGRO,,,,MARTHA ESTELLA MEDINA DE MONTENEGRO,,,,,LAS TABLAS,,,1.00 ,6-57-1439 D.V. 78,,,
200,"Impresora Garsa, S.A.",,,,Jose Dimas Rodriguez Saenz,,,222-5223,393-0118,Ave. Pulida Edificio Caroni Local Nº2,,,1.00 ,316093-49758-22 D.V. 11,,,
201,"Publimagen Panamá, S.A.",,,,Alfonso Rafael Molina Alvarez,,,221-5354/55,.,Calle 13 Rio Abajo,,,1.00 ,584793-1213072-1 D.V. 76,,,
202,JACINTO GONZALEZ JAEN,,,,JACINTO GONZALEZ JAEN,,,,,LAS TABLAS,,,1.00 ,7-116-649 D.V. 88,,,
203,YAJAIRA YARISEL ORTEGA CABALLERO,,,,YAJAIRA YARISEL ORTEGA CABALLERO,,,,,"DAVID, CHIRIQUI",,,1.00 ,4-735-269 D.V. 21,,,
204,LUIS FELIPE ALVAREZ BULUFER,,,,LUIS FELIPE ALVAREZ BULUFER,,,,,"DAVID,CHIRIQUI",,,1.00 ,4-139-2473 D.V. 89,,,
205,JOSEPH ANTHONY MURGAS LEZCANO,,,,JOSEPH ANTHONY MURGAS LEZCANO,,,,,"DAVID, CHIRIQUI",,,1.00 ,4-758-1977 D.V. 01,,,
206,ELSA INES ROJAS GUEVARA,,,,ELSA INES ROJAS GUEVARA,,,,,"DAVID, CHIRIQUI",,,1.00 ,4-204-305 D.V. 19,,,
207,RIGOBERTO AYALA,,,,RIGOBERTO AYALA,,,,,"DAVID, CHIRIQUI",,,1.00 ,4-207-805 D.V. 49,,,
208,JOSE OSVALDO CASTILLO GONZALEZ,,,,JOSE OSVALDO CASTILLO GONZALEZ,,,,,LAS TABLAS,,,1.00 ,8-334-475 D.V. 50,,,
209,ELVIA YINA RODRIGUEZ VILLARREAL,,,,ELVIA YINA RODRIGUEZ VILLARREAL,,,,,"DAVID, CHIRIQUI",,,1.00 ,4-251-441 D.V. 70,,,
210,"AGROPECUARIA BOCA VIEJA, S.A.",,,,LUIS BENJAMIN ROSAS VELASQUEZ,,,727-0582,727-0582,"DAVID, CHIRIQUI",,,1.00 ,158002-16702-2 D.V. 0 ,,,
211,ZELIDETH YANELA SERRANO SERRANO,,,,ZELIDETH YANELA SERRANO SERRANO,,,,,"DAVID, CHIRIQUI",,,1.00 ,4-283-688 D.V. 10,,,
212,EDGAR ELIAS MONTEZA MUÑOZ,,,,EDGAR ELIAS MONTEZA MUÑOZ,,,,,LAS TABLAS,,,1.00 ,7-703-1309 D.V. 27,,,
213,IBEEL DAMARISIN DEL CID CUBILLA,,,,IBEEL DAMARISIN DEL CID CUBILLA,,,,,"DAVID, CHIRIQUI",,,1.00 ,4-755-1511 D.V. 00,,,
214,JOSE OSVALDO RODRIGUEZ DOMINGUEZ,,,,JOSE OSVALDO RODRIGUEZ DOMINGUEZ,,,,,LAS TABLAS,,,1.00 ,8-523-121 D.V. 42,,,
215,JOSE MARIA GOMEZ VASQUEZ,,,,JOSE MARIA GOMEZ VASQUEZ,,,,,"DAVID, CHIRIQUI",,,1.00 ,1-18-2247 D.V. 86,,,
216,EDILBERTO EDUARDO CHIU VERGARA,,,,EDILBERTO EDUARDO CHIU VERGARA,,,,,"DAVID, CHIRIQUI",,,1.00 ,1-19-1323 D.V. 53,,,
217,GANADERA EL MILAGRO,,,,IVAN JAVIER LEZCANO MORALEES,,,721-1267,.,"DAVID, CHIRIQUI",,,1.00 ,429615-436592-1 D.V. 36,,,
218,BOLIVAR ANTONIO GUEVARA STANZIOLA,,,,BOLIVAR ANTONIO GUEVARA STANZIOLA,,,,,LAS TABLAS,,,1.00 ,2-78-1072 D.V. 66,,,
219,JOSE B. MONTENEGRO,,,,JOSE B. MONTENEGRO,,,,,LAS TABLAS,,,1.00 ,7-84-898 D.V. 98,,,
220,"Constructores Consolidados, S.A.",,,,Freddy Antonio Manzano Calles,,,6747-6715,.,"Arraijan, Sector Villa Caceres # 10",,,1.00 ,556365-1088247-1 D.V.   ,,,
221,VICTOR ELIESER VERGARA SANTOS,,,,VICTOR ELIESER VERGARA SANTOS,,,,,"DAVID, CHIRIQUI",,,1.00 ,1-700-1027 D.V. 64,,,
222,ESTEBAN CABALLERO STAFF,,,,ESTEBAN CABALLERO STAFF,,,,,"DAVID, CHIRIQUI",,,1.00 ,4-171-62 D.V. 80,,,
223,"SUPLATEC, S.A.",,,,Juan Carlos Marciaga Parada,,,261-0201,261-0203,"Fernández de Cordoba, Plaza Agora, Local 20",,,1.00 ,601320-1284383-1 D.V.   ,,,
224,"FUJICO, S.A.",,,,Juan Carlos Marciaga Parada,,,261-02-01,261-0203,Fernandez de Cordoba Plaza Agora local 20,,,1.00 ,663389-1585796-1 D.V.   ,,,
225,"NOMADAS DE CENTROAMERICA PANAMA , S.A.",,,,ANATOLI SOUIFER,,,6684-1188,264-9938,"Ciudad de Panamá, Vía Israel, Cl. San Felipe, Cond. Colonial N°20",,,1.00 ,400777-235928-1 D.V.   ,,,
226,"MARKORP, S.A.",,,,Juan Carlos Marciaga Parada,,,261-0201,261-0203,Fernández de Cordoba Plaza Agora Local 20,,,1.00 ,663377-1585720-1 D.V.   ,,,
227,EIDY YISSEL CORTEZ MIRANDA,,,,EIDY YISSEL CORTEZ MIRANDA,,,,,"DAVID, CHIRIQUI",,,1.00 ,4-234-200 D.V. 20,,,
228,"INVISA DEVELOPMENT, S.A.",,,,Juan Carlos Marciaga Prada,,,261-0201,261-0203,"Fernández de Cordoba, Plaza Agora Local #20",,,1.00 ,663668-1587318-1 D.V. 35,,,
229,MARTIN GONZALEZ REAL,,,,MARTIN GONZALEZ REAL,,,,,,,,1.00 ,2-120-453 D.V. 92,,,
230,"EQUIPOS FIBRA TECNICA, S.A.",,,,Olga Elizabeth Barahona Batista,,,295-6349,295-2475,"24 de Diciembre, entrada de las paredes, Via Panamericana, Local 7B.",,,1.00 ,245268-31878-40 D.V. 23,,,
231,OMAIRA CECILIA ESPINOSA CASTILLO,,,,OMAIRA CECILIA ESPINOSA CASTILLO,,,,,"DAVID, CHIRIQUI",,,1.00 ,4-227-986 D.V. 20,,,
232,ANTONINO ANTONIO ANTUNEZ NUÑEZ,,,,ANTONINO ANTONIO ANTUNEZ NUÑEZ,,,,,LAS TABLAS,,,1.00 ,7-93-1342 D.V. 64,,,
233,RODRIGO BONILLA  CASTILLO,,,,RODRIGO BONILLA  CASTILLO,,,,,LAS TABLAS,,,1.00 ,2-46-629 D.V. 46,,,
234,MANUEL DE JESUS BATISTA,,,,MANUEL DE JESUS BATISTA,,,,,LAS TABLAS,,,1.00 ,7-702-321 D.V. 24,,,
235,ABRAHAM MEDINA DELGADO,,,,ABRAHAM MEDINA DELGADO,,,,,LAS TABLAS,,,1.00 ,7-100-508 D.V. 06,,,
236,Luz Ibeth Esquivel de Ramirez,,,,Luz Ibeth Esquivel de Ramirez,,,,,,,,1.00 ,4-201-897 D.V. 44,,,
237,NIVIA SANCHEZ DE ORTEGA,,,,NIVIA SANCHEZ DE ORTEGA,,,,,"DAVID, CHIRIQUI",,,1.00 ,4-104-1886 D.V. 34,,,
238,"ILFER, S.A.",,,,Ileana Marle Vargas Troncoso,,,6613-7053,239-4835,"Altos de Las Praderas de San antonio, Calle Mestre, Local F-7",,,1.00 ,456569-632203-1 D.V. 03,,,
239,"Concreto Unico, S.A.",,,,Guoding Wu,,,442-5054,442-5291,"Barriada Nuevo Mexico, Sugunda Entrada Edif 2A Local 1",,,1.00 ,614159-1337279-1 D.V. 6 ,,,
240,SAVAASH SERVICE CORP.,,,,Albis Eneida  Barrios Jimenez,,,266-4553,6664-5358,"Pedregal, La Riviera Cl 1ra local 47A",,,1.00 ,545132-1040992-1 D.V. 45,,,
241,JULIO ENRIQUE CERRUD GOMEZ,,,,JULIO ENRIQUE CERRUD GOMEZ,,,222-2253,.,"Distrito de Panama, Rio Abajo, Urbanizacion Villa Lorena, Cl, Via Jose Arango, Edif, Don Guille, Apt/Local 1-A",,,1.00 ,8-803-368 D.V. 30,,,
242,NILO TEJEIRA PIMENTEL,,,,NILO TEJEIRA PIMENTEL,,,6673-3722,442-6128,SABANITAS SAN JOSE-COLON,,,1.00 ,4-140-156 D.V. 80,,,
243,Tomas Jose Aizpurua Ledezma,,,,Tomas Jose Aizpurua Ledezma,,,6627-5548,.,.,,,1.00 ,4-228-26 D.V. 50,,,
244,RAMIRO CHAVARRIA CANO,,,,RAMIRO CHAVARRIA CANO,,,,,DAVID CHIRIQUI,,,1.00 ,4-224-820 D.V. 24,,,
245,ALBERTO JAVIER DIAZ,,,,ALBERTO JAVIER DIAZ,,,6671-0817,251-6351,"San Miguelito, Villa Lucre, Cl Principal, Casa 195-A",,,1.00 ,8-449-2 D.V. 85,,,
246,DANIEL GONZALEZ CAÑIZALEZ,,,,DANIEL GONZALEZ CAÑIZALEZ,,,6809-4158,.,"San Antonio, Camino Real, CasaL 43",,,1.00 ,8-472-554 D.V. 40,,,
247,EVARISTO ARAUZ,,,,EVARISTO ARAUZ SANCHEZ,,,6682-6736,273-7958,Panama,,,1.00 ,4-95-63 D.V. 48,,,
248,"TECNIPLOMER GROUP, S.A.",,,,LEONARDO MARIN GRISALES,,,6466-7864,390-5255,"San Francisco, Via Porras, Edif. Luis Eduardo, Piso 3, Apartamento 13",,,1.00 ,620775-1366008-1 D.V. 12,,,
249,"IDEAS Y FORMAS DE PANAMA, S.A.",,,,JOSE SANCHEZ,,,390-4477,390-1377,"Edificio Mil, Antiguo Triangulo, Local 103",,,1.00 ,559849-1101237-1 D.V. 46,,,
250,Armando Enrique Madrid Santos ,,,,Armando Enrique Madrid Santos ,,,6787-2794,.,.,,,1.00 ,9-174-172 D.V. 80,,,
251,"SISTEMAS Y EQUIPOS, S.A.",,,,Fernando Antonio Francis Gonzalez,,,278-1801/02,.,Cl 65 Carrasquilla Edif PH Aramis local 2 PB,,,1.00 ,279463-40420-0132 D.V. 60,,,
252,"SOLDADORES ASOCIADOS, S.A.",,,,Corina Espino Nuñez,,,267-0537,.,Panama Rep Panama,,,1.00 ,417485-350640-1 D.V. 25,,,
253,AUDEMIO ISMAEL PALOMINO MORENO,,,,AUDEMIO ISMAEL PALOMINO MORENO,,,,,LAS TABLAS,,,1.00 ,7-701-2030 D.V. 7 ,,,
254,"Servicios Yar, S.A.",,,,Yoel Domingo Leon Castañeda,,,6868-4425,.,Parque Lefevre Cl 5ta edif Altos de Parque Lefevre PB,,,1.00 ,667102-1605509-1 D.V. 42,,,
255,"CONSA, S.A.",,,,HILDA YINA DE SAMANIEGO,,,261-4327,261-4327,CL 133 BETHANIA,,,1.00 ,418911-360775-1 D.V. 94,,,
256,"JJ PLUMBING, S.A.",,,,JOSE ANTONIO TEJADA GONZALEZ ,,,248-7163,6200-5759,CAPIRA CALLE LAS COLINAS PANAMA,,,1.00 ,652584-1526262-1 D.V. 92,,,
257,"EQUIPOS CORPINSA, S.A.",,,,ABRAHAM MIZRACHI ROUSEAU,,,237-2222,237-3957,MILLA 8 LAS CUMBRES,,,1.00 ,51058-3420-15 D.V. 91,,,
258,"Importaciones y Ventas, S.A.",,,,Edonay Caballero Gomez,,,217-1729,.,"Campo Limbergh, Edif Arcadas",,,1.00 ,683474-1686286-1 D.V. 43,,,
259,Jacqueline Johana Garcia Sandoval,,,,Jacqueline Johana Garcia Sandoval,,,290-0601,.,Ciudad Radial cl D Casa Nº 5-4,,,1.00 ,8-731-818 D.V. 86,,,
260,ROBERTO ARCHIBOLD CHUITO,,,,ROBERTO ARCHIBOLD CHUITO,,,,,"DAVID, CHIRIQUI",,,1.00 ,1-35-578 D.V. 00,,,
261,ROGER RUBEN RODRIGUEZ ABREGO,,,,ROGER RUBEN RODRIGUEZ ABREGO,,,6883-7709,391-0437,"Via Fernandez de Cordoba, Vista Hermosa, Plaza Luti, Local 2F",,,1.00 ,9-717-1086 D.V. 29,,,
262,ARIADNA DEL ROSARIO DIAZ,,,,ARIADNA DEL ROSARIO DIAZ,,,,,LAS TABLAS,,,1.00 ,6-52-2640 D.V. 3 ,,,
263,Comercial Alquileres y Servicios Para La Construcción S.A.,,,,Francisco Mola Ortega,,,217-3260,217-6022,Juan Diaz frente a los Estacionamientos del Rommel Fernandez,,,1.00 ,529829-96999-1 D.V. 21,,,
264,ERNESTO ALEXANDER QUIEL GONZALEZ,,,,ERNESTO ALEXANDER QUIEL GONZALEZ,,,,,"DAVID,CHIRIQUI",,,1.00 ,4-720-903 D.V. 30,,,
265,RODOLFO SCHAPER LOPEZ,,,,RODOLFO SCHAPER LOPEZ,,,,,"DAVID, CHIRIQUI",,,1.00 ,4-257-249 D.V. 15,,,
266,Inversiones Murcia S.A.,,,,Augusto Antonio Robinson Gonzalez,,,229-9000,278-9620,Edificio Pistar Holding Via Transistmica con Via Brasil,,,1.00 ,271025-38264-85 D.V. 62,,,
267,JUAN CARRASCO GONZALEZ,,,,JUAN CARRASCO GONZALEZ,,,,,"DAVID, CHIRIQUI",,,1.00 ,9-117-1623 D.V. 18,,,
268,"Pistar Holding, S.A.",,,,Augusto Antonio Robinson Gonzalez,,,229-9000,278-9629,Edif. Pistar Holding Via Transistmica con Via Brasil,,,1.00 ,401851-242568-1 D.V. 8 ,,,
269,ABDIEL OSCAR BEITIA NORIEGA,,,,ABDIEL OSCAR BEITIA NORIEGA,,,,,"DAVID, CHIRIQUI",,,1.00 ,4-147-518 D.V. 63,,,
270,ERICK ALBERTO CEDEÑO CABALLERO,,,,ERICK ALBERTO CEDEÑO CABALLERO,,,,,"DAVID, CHIRIQUI",,,1.00 ,4-154-182 D.V. 40,,,
271,"Mantenimiento y Conservación Industrial, S.A.",,,,Yeritza del Carmen Frago Carrera,,,394-3575,394-3575,Altos de la Pulida Cl 8 Casa G-31,,,1.00 ,684843-1692509-1 D.V. 92,,,
272,IVAN ALEXANDER DEL CID ALVARADO,,,,IVAN ALEXANDER DEL CID ALVARADO,,,,,"DAVID, CHIRIQUI",,,1.00 ,4-725-2093 D.V. 07,,,
273,"I.P. LEATHER, CORP",,,,JOSE ANTONIO HALPHEN PERURENA,,,225-1136,225-1317,CALLE 39 BELLA VISTA EDIF REGINA,,,1.00 ,455928-627829-1 D.V. 45,,,
274,"CONSTRUCTORA MORENO & ASOCIADOS, S.A.",,,,Jorge Isaac Moreno Lopez,,,6747-5514,220-2509,"Don Bosco, Calle 1era, Casa 1004",,,1.00 ,662124-1578674-1 D.V. 05,,,
275,Alexander Abdiel Burgos Nieto,,,,Alexander Abdiel Burgos Nieto,,,391-4963,394-4098,Pueblo Nuevo Residencial El Mirador casa E-49,,,1.00 ,7-113-17 D.V. 08,,,
276,JONATHAN QUIROZ S.,,,,JONATHAN QUIROZ S.,,,.,.,"DAVID, CHIRIQUI",,,1.00 ,4-106-304 D.V. 91,,,
277,TERESA DEL CARMEN TAPIAS IBAÑEZ,,,,TERESA DEL CARMEN TAPIAS IBAÑEZ,,,.,.,"DAVID, CHIRIQUI",,,1.00 ,E-8-93389 D.V. 41,,,
278,MAGALY DEL CARMEN LEZCANO BOUCHE,,,,MAGALY DEL CARMEN LEZCANO BOUCHE,,,.,.,"DAVID, CHIRIQUI",,,1.00 ,4-139-634 D.V. 90,,,
279,JULIA MARIA BEITIA CEDEÑO,,,,JULIA MARIA BEITIA CEDEÑO,,,,,"DAVID, CHIRIQUI",,,1.00 ,4-104-2704 D.V. 89,,,
280,EDONAYS CABALLERO CHECA,,,,EDONAYS CABALLERO CHECA,,,217-1729/6615-6032,217-4068,"Juan Diaz, Urb. Campo Limberg, Edif. PH Plaza Arcadas, Apt N° 14",,,1.00 ,8-820-1927 D.V. 49,,,
281,"H & D Ingenieros, S.A.",,,,Demostenes Duclias Valladares,,,394-7494,394-7493,Calle 80.5 San Antonio,,,1.00 ,636745-1444314-1 D.V. 11,,,
282,"CONSTRUCTORA BRITHANY,S.A.",,,,HERIBERTO VEGA PEREZ,,,970-1934/6450-5150,970-1052,"Prov. Herrera, Dist.Chitre, Corre. de Chitre (Cabecera) Urb. Luis Rios, Cl.Luis Rios,Edif. Luis Rios, Local  12",,,1.00 ,609234-1314963-1 D.V. 12,,,
283,"CONSTRUCTORA DAGO,S.A.",,,,Jose Luis Varela Arosemena,,,6488-5594,391-7691,"Las Cumbres, Sect. Maria Henriquez, Las Camelias, Local1",,,1.00 ,557496-1092609-1 D.V.   ,,,
284,BOLIVAR ENRIQUE MEDINA BATISTA,,,,BOLIVAR ENRIQUE MEDINA BATISTA,,,,,LAS TABLAS,,,1.00 ,7-57-611 D.V. 39,,,
285,GERARDINO ACEVEDO BARAHONA,,,,GERARDINO ACEVEDO BARAHONA,,,,,LAS TABLAS,,,1.00 ,7-112-809 D.V. 74,,,
286,"FENTON TRAVELS, S.A.",,,,Anabel Pilar Rodriguez Fenton,,,227-5215/6676-5265,227-7349,"Justo Arosemena, Calle 37 Bella Vista, Alado de la escuela Latinoamericana",,,1.00 ,511380-882572-1 D.V. 31,,,
287,EFRAIN CORNELIO GONZALEZ MORENO,,,,EFRAIN CORNELIO GONZALEZ MORENO,,,,,"DAVID, CHIRIQUI",,,1.00 ,4-704-834 D.V. 63,,,
288,OMAR EMILIO BERNAL CISNERO,,,,OMAR EMILIO BERNAL CISNERO,,,.,.,LAS TABLAS,,,1.00 ,2-101-2564 D.V. 6 ,,,
289,EDILIO GOMEZ ARAUZ,,,,EDILIO GOMEZ ARAUZ,,,.,.,"DAVID, CHIRIQUI",,,1.00 ,4-64-104 D.V. 36,,,
290,ARQUIMEDES PITTI PITTI,,,,ARQUIMEDES PITTI PITTI,,,,,"DAVID, CHIRIQUI",,,1.00 ,4-99-1275 D.V. 2 ,,,
291,"ARC, S.A.",,,,Edgar Muñoz Muñoz,,,6659-8595,390-9464,URB. Sta. Clara. C-644,,,1.00 ,354322-63205-61 D.V.   ,,,
292,"DISTRIBUIDORA RALCART, S.A.",,,,Ramon Carretero Napolitano,,,290-6719,220-8004,"Via Jose Domingo Diaz, Via Tocumen. Frente a Fabrica Gliden",,,1.00 ,697533-1756902-1 D.V. 76,,,
293,ALEXANDER IBARRA,,,,ALEXANDER IBARRA,,,,,"DAVID, CHIRIQUI",,,1.00 ,4-720-682 D.V. 46,,,
294,MANUEL ANTONIO HERNADEZ BATISTA,,,,MANUEL ANTONIO HERNADEZ BATISTA,,,,,LAS TABLAS,,,1.00 ,7-700-1333 D.V. 40,,,
295,MARCO ANTONIO VERGARA CERRUD,,,,MARCO ANTONIO VERGARA CERRUD,,,,,"LAS TABLAS,",,,1.00 ,8-268-881 D.V. 63,,,
296,ERICA DE VEGARA,,,,ERICA DE VEGARA,,,,,LAS TABLAS,,,1.00 ,7-117-821 D.V. 48,,,
297,VIELKA JUDITH CASTILLO DE CEDEÑO,,,,VIELKA JUDITH CASTILLO DE CEDEÑO,,,,,LAS TABLAS,,,1.00 ,7-72-434 D.V. 75,,,
298,"Producciones Yuyito Arrocha,S.A.",,,,Jose Guillermo Arrocha Blanco,,,260-6051,260-5620,La Loceria cl 61 No. 61 No.34G,,,1.00 ,677908-1662114-1 D.V. 61,,,
299,MARIA DEL C VEGA ITURRALDE,,,,MARIA DEL C VEGA ITURRALDE,,,,,LAS TABLAS,,,1.00 ,7-115-820 D.V. 96,,,
300,"GRUPO CE-ACHE, S.A.",,,,Mohamed Kabbani Al Satti,,,392-6640,392-6640,"Ave. Balboa, Edificio Procosa, Planta Baja, Local E",,,1.00 ,504277-845123-1 D.V. 51,,,
301,"Creaciones Publicitarias, S.A.",,,,Ricardo Bakes Moreno,,,226-8988,226-3564,Via Porras Edificio Don Jesus al lado de la Casa de Carne,,,1.00 ,376845-89025-1 D.V. 26,,,
302,NORISLIN DEL ROSARIO GONZALEZ MORALES,,,,NORISLIN DEL ROSARIO GONZALEZ MORALES,,,,,"DAVID,CHIRIQUI",,,1.00 ,4-720-2433 D.V. 40,,,
303,JANETH EDITH PLATA ABREGO,,,,JANETH EDITH PLATA ABREGO,,,368-1230,368-1230,"Alcalde Diaz, La Cabima, Sector 11, N° 48",,,1.00 ,8-836-1801 D.V. 96,,,
304,"SARIGUA DESIGN STUDIO, S.A.",,,,Yamileth Roxana Villavicencio Vega de Cedeño,,,6070-2051,399-5325,"Via Juan Pablo II, Edificio Arequipa, Primer Alto",,,1.00 ,427204-419935-1 D.V. 78,,,
305,ELIESER A. ACEVEDO D.,,,,ELIESER A. ACEVEDO D.,,,,,LAS TABLAS,,,1.00 ,7-705-2402 D.V. 48,,,
306,JOSE CAMPOS,,,,JOSE CAMPOS,,,,,LAS TABLAS,,,1.00 ,6-700-711 D.V. 42,,,
307,VIRGILIO CARRERA PITTI,,,,VIRGILIO CARRERA PITTI,,,,,"DAVID,CHIRIQUI",,,1.00 ,1-43-277 D.V. 96,,,
308,"GOLF IN PANAMA, S.A.",,,,Lorena Ivett Batista Rodriguez,,,6000-6673,202-1950,"Arraijan, Urb. Villas del Pinar, Calle La Lomita, Casa 33-L",,,1.00 ,502976-837871-1 D.V.   ,,,
309,ILDAURA MARIA GOMEZ NUÑEZ,,,,ILDAURA MARIA GOMEZ NUÑEZ,,,,,"DAVID, CHIRIQUI",,,1.00 ,4-199-385 D.V. 0 ,,,
310,"Comerciales Tadero,S.A.",,,,Tania de Bello Robles,,,229-8418,261-3998,"Vista Hermosa, Calle Francisco Filos Edif.Ingenieria REC Ofic Nº74",,,1.00 ,282028-41030-39 D.V.   ,,,
311,FELICIANO SALDAÑA CANTO,,,,FELICIANO SALDAÑA CANTO,,,,,"DAVID, CHIRIQUI",,,1.00 ,4-181-374 D.V. 38,,,
312,EVELIA MORENO DE MARTINEZ,,,,EVELIA M. DE MARTINEZ,,,,,LAS TABLAS,,,1.00 ,6-46-605 D.V. 39,,,
313,ARGELIDES DIAZ,,,,ARGELIDES DIAZ,,,,,LAS TABLAS,,,1.00 ,7-703-590 D.V. 17,,,
314,RIGOBERTO PITTI ACOSTA,,,,RIGOBERTO PITTI ACOSTA,,,,,"DAVID,CHIRIQUI",,,1.00 ,4-125-507 D.V. 87,,,
315,ARGEL ARIEL HERRERA BATISTA,,,,ARGEL ARIEL HERRERA BATISTA,,,,,LAS TABLAS,,,1.00 ,7-95-169 D.V. 76,,,
316,REYNALDO RAMOS NIETO,,,,REYNALDO RAMOS NIETO,,,,,LAS TABLAS,,,1.00 ,6-704-153 D.V. 67,,,
317,FABIO ROBLES MARTINEZ,,,,FABIO ROBLES MARTINEZ,,,,,"DAVID, CHIRIQUI",,,1.00 ,4-114-380 D.V. 06,,,
318,JOSE CRUZ,,,,JOSE CURZ,,,,,LAS TABLAS,,,1.00 ,7-700-2036 D.V. 59,,,
319,JOSE ANGEL RODRIGUEZ,,,,JOSE ANGEL RODRIGUEZ,,,,,LAS TABLAS,,,1.00 ,8-512-452 D.V. 75,,,
320,ALFONSO ALBERTO RAMIREZ RODRIGUEZ,,,,ALFONSO ALBERTO RAMIREZ RODRIGUEZ,,,,,DAVID CHIRIQUI,,,1.00 ,CC-1122-0247 D.V.   ,,,
321,SANTIAGO ABREGO GUERRA,,,,SANTIAGO ABREGO GUERRA,,,,,DAVID CHIRIQUI,,,1.00 ,1PI-13-521 D.V. 28,,,
322,DALYS HERRERA DE GONZÁLEZ,,,,DALYS HERRERA DE GONZALEZ,,,,,LAS TABLAS,,,1.00 ,7-73-997 D.V. 8 ,,,
323,ERNESTO RICARDO RECORD BLANDFORD,,,,ERNESTO RICARDO RECORD BLANDFORD,,,,,"DAVID, CHIRIQUI",,,1.00 ,1-20-597 D.V. 69,,,
324,MARIO ALBERTO MEDINA SOLIS,,,,MARIO ALBERTO MEDINA SOLIS,,,,,LAS TABLAS,,,1.00 ,7-702-2410 D.V. 41,,,
325,PLINIO MONTERREY,,,,PLINIO MONTERREY,,,,,LAS TABLAS,,,1.00 ,6-27-551 D.V. 94,,,
326,"SISTEMAS DE INFORMACION, S.A.",,,,JAIME ADOLFO PORCELL ALEMAN,,,6917-1713,224-9017,"AVE. ERNESTO T. LEFEVRE, EDIF. ROYAL PARK, OFIC. M9",,,1.00 ,220311-25763-214 D.V. 30,,,
327,CARLOS IVAN CABALLERO ORTEGA,,,,CARLOS IVAN CABALLERO ORTEGA,,,.,.,"DAVID, CHIRIQUI",,,1.00 ,4-749-1399 D.V. 31,,,
328,"DISTRIBUIDORA Y CONSTRUCTORA ENEIDA,S.A.",,,,Francisco Argimiro Him Ruiz,,,.,770-3632,"Via Volcan, La Concepcion, Chiriqui",,,1.00 ,532798-984096-1 D.V.   ,,,
329,FRANKLIN RAMON MARTINIS GUERRAS,,,,FRANKLIN RAMON MARTINIS GUERRA,,,,,"DAVID, CHIRIQUÍ",,,1.00 ,4-97-2049 D.V. 78,,,
330,ELVIA AURORA WITTGREEN GOMEZ,,,,ELVIA AURORA WITTGREEN GOMEZ,,,,,"DAVID, CHIRIQUI",,,1.00 ,4-735-123 D.V. 86,,,
331,SOFIA LISBEL MIRANDA ACOSTA,,,,SOFIA LISBEL MIRANDA ACOSTA,,,.,.,"DAVID, CHIRIQUI",,,1.00 ,4-719-641 D.V. 70,,,
332,"PB MOVIL PANAMA, S.A.",,,,Alfonso Rafael Molina Alvarez,,,221-5355,221-5354,Calle 13 Rio Abajo Segunda Galera despues de Plastigol,,,1.00 ,620825-1366415-1 D.V. 14,,,
333,"JUNTA DE ARQUITECTOS E INGENIEROS, S.A.",,,,CARLOS MANUEL BEITIA DEL CID,,,6676-6426,7741525,"Vía a Boquete, 2 km del cruce de la Carretera Interamericana (Cruce de Super Barú, Ricardo Pérez y Novey y  Concreto Choy",,,1.00 ,338247-57233-8 D.V. 83,,,
334,"Faiska Constructora, S.A.",,,,Reynaldo Rodriguez Peralta,,,996-6212,996-6212,VIA ISRAEL  SAN FRANCISCO EDIFICIO TERRA WIND PISO 7,,,1.00 ,572947-1156688-1 D.V. 34,,,
335,ALFREDO JAEN CANO,,,,ALDREADO JAEN CANO,,,.,.,LAS TABLAS,,,1.00 ,7-112-892 D.V. 54,,,
336,AZAEL ANTONIO CRUZ PEREZ,,,,AZAEL ANTONIO CRUZ PEREZ,,,,,LAS TABLAS,,,1.00 ,9-152-208 D.V. 00,,,
337,JAIME JOSE SAMANIEGO CORTEZ,,,,JAIME JOSE SAMANIEGO CORTEZ,,,,,LAS TABLAS,,,1.00 ,7-113-322 D.V. 63,,,
338,"CONSTRUCTORA ESCOBAR VEGA, S.A.",,,,HECTOR E. ESCOBAR O.,,,67476103,970-1741,"Calle Manuel María Correa, Chitre, Herrera",,,1.00 ,435409-479007-1 D.V. 58,,,
339,ADA EDILSA GONZALEZ ALMANZA,,,,ADA EDILSA GONZALEZ ALMANZA,,,,,LAS TABLAS,,,1.00 ,6-704-2225 D.V. 83,,,
340,CEVERINO ANTONIO DOMINGUEZ VILLARREAL,,,,CEVERINO ANTONIO DOMINGUEZ VILLARREAL,,,,,LAS TABLAS,,,1.00 ,7-88-918 D.V. 18,,,
341,JOSE DE LA ROSA MARTINEZ PINTO,,,,JOSE DE LA ROSA MARTINEZ PINTO,,,,,LAS TABLAS,,,1.00 ,6-47-1363 D.V. 09,,,
342,HECTOR JESUS RODRIGUEZ CEDEÑO,,,,HECTOR JESUS RODRIGUEZ CEDEÑO,,,,,LAS TABLAS,,,1.00 ,7-703-672 D.V. 06,,,
343,"INGENIERIA, CONSTRUCCION Y PROYECTOS CIVILES, S.A.",,,,RANDOLL RICAUTER APONTE MOJICA,,,232-6032,232-6033,"CURUNDU, CALLE BELLA VISTA, EDIF ALBROOK COMMERCIAL PARK, OFIC. 109",,,1.00 ,576318-1172212-1 D.V. 80,,,
344,ARISTIDES GARCIA QUINTERO,,,,ARISTIDES GARCIA QUINTERO,,,,,LAS TABLAS,,,1.00 ,7-94-637 D.V. 77,,,
345,CERVANTES MONTENEGRO MONTERREY,,,,CERVANTES MONTENEGRO MONTERREY,,,,,SANTIAGO,,,1.00 ,6-58-2507 D.V. 42,,,
346,OTILIO NIETO GONZALEZ,,,,OTILIO NIETO GONZALEZ,,,,,LAS TABLAS,,,1.00 ,7-93-297 D.V. 11,,,
347,VALENTIN SAAVEDRA TREJOS,,,,VALENTIN SAAVEDRA TREJOS,,,,,LAS TABLAS,,,1.00 ,6-46-1004 D.V. 25,,,
348,AGAPITO VELASQUEZ VELASQUEZ,,,,AGAPITO VELASQUEZ VELASQUEZ,,,,,LAS TABALS,,,1.00 ,7-91-2044 D.V. 10,,,
349,DAMIAN EDUARDO MONTENEGRO ORTEGA,,,,DAMIAN EDUARDO MONTENEGRO ORTEGA,,,,,LAS TABLAS,,,1.00 ,7-705-1771 D.V. 04,,,
350,ULICES YOBANY ARCIA SAMANIEGO,,,,ULICES YOBANY ARCIA SAMANIEGO,,,,,SANTIAGO,,,1.00 ,9-700-793 D.V. 69,,,
351,ORESTES ANTONIO BARAHONA BARRIOS,,,,ORESTES ANTONIO BARAHONA BARRIOS,,,,,LAS TABLAS,,,1.00 ,7-46-757 D.V. 12,,,
352,ANELYS CEDEÑO,,,,ANELYS CEDEÑO,,,,,LAS TABLAS,,,1.00 ,7-705-350 D.V. 75,,,
353,ELIGIO GARCIA QUINTERO,,,,ELIGIO GARCIA QUINTERO,,,,,LAS TABLAS,,,1.00 ,7-20-662 D.V. 41,,,
354,IZAEL CANTO DIAZ,,,,IZAEL CANTO DIAZ,,,,,LAS TABLAS,,,1.00 ,6-704-64 D.V. 57,,,
355,CLIMACO PASTOR BARRIOS GONZALEZ,,,,CLIMACO PASTOR BARRIOS GONZALEZ,,,,,LAS TABLAS,,,1.00 ,7-68-197 D.V. 57,,,
356,VERONICA RAQUEL CHAVEZ GONZALEZ,,,,VERONICA RAQUEL CHAVEZ GONZALEZ,,,,,CHITRE,,,1.00 ,6-713-1148 D.V. 44,,,
357,"DISTRIBUIDORA ELETEC, S.A.",,,,YADIRA DEL CARMEN MOJICA DE YANIS,,,260-7698,260-7698,"CALLE 1ra EL CARMEN, EDIF. SANTA FE, 2do PISO",,,1.00 ,520641-926683-1 D.V. 20,,,
358,RICARDO ENRIQUE GARCIA MARCIAGA,,,,RICARDO ENRIQUE GARCIA MARCIAGA,,,,,CHITRE,,,1.00 ,6-80-389 D.V. 41,,,
359,AVELINO HERRERA MARIN,,,,AVELINO HERRERA MARIN,,,,,LAS TABLAS,,,1.00 ,6-701-1341 D.V. 4 ,,,
360,DANIEL GARCIA JIMENEZ,,,,DANIEL GARCIA JIMENEZ,,,,,LAS TABLAS,,,1.00 ,7-704-605 D.V. 73,,,
361,ROBERTO ESTEBAN RIVERA MORENO,,,,ROBERTO ESTEBAN RIVERA MORENO,,,,,LAS TABLAS,,,1.00 ,7-70-1577 D.V. 50,,,
362,ELADIO DELGADO LEMUS,,,,ELADIO DELGADO LEMUS,,,,,LAS TABLAS,,,1.00 ,6-80-540 D.V. 41,,,
363,ROGER BERNAL,,,,ROGER BERNAL,,,,,,,,1.00 ,6-82-599 D.V. 10,,,
364,ROBERTO ANTONIO DOMINGUEZ MURILLO,,,,ROBERTO ANTONIO DOMINGUEZ MURILLO,,,,,LAS TABLAS,,,1.00 ,7-702-459 D.V. 60,,,
365,LUIS ANTONIO GUERRA,,,,LUIS ANTONIO GUERRA,,,,,LAS TABLAS,,,1.00 ,6-38-929 D.V. 49,,,
366,ISAAC MANUEL NORATO CARDENAS,,,,ISAAC MANUEL NORATO CARDENAS,,,,,LAS TABLAS,,,1.00 ,7-108-370 D.V. 11,,,
367,DAYRA LUCILA VEGA DE DIAZ,,,,DAYRA LUCILA VEGA DE DIAZ,,,,,SANTIAGO,,,1.00 ,6-75-63 D.V. 75,,,
368,JOSE MANUEL MENDOZA QUINTERO,,,,JOSE MANUEL MENDOZA QUINTERO,,,,,LAS TABLAS,,,1.00 ,6-59-960 D.V. 96,,,
369,HARMODIO MEDINA HERRERA,,,,HARMODIO MEDINA HERRERA,,,,,LAS TABLAS,,,1.00 ,7-91-1956 D.V. 75,,,
370,CASIMIRO GONZALEZ JAEN,,,,CASIMIRO GONZALEZ JAEN,,,,,,,,1.00 ,7-46-159 D.V. 6 ,,,
371,ANA BEATRIZ RODRIGUEZ GONZALEZ,,,,ANA BEATRIZ RODRIGUEZ GONZALEZ,,,,,LAS TABLAS,,,1.00 ,6-713-176 D.V. 44,,,
372,JORGE ARNULFO MOLINA ACOSTA,,,,JORGE ARNULFO MOLINA ACOSTA,,,,,LAS TABLAS,,,1.00 ,7-704-1755 D.V. 59,,,
373,JORGE MANUEL FALCONETT CASTILLO,,,,JORGE MANUEL FALCONETT CASTILLO,,,,,LAS TABLAS,,,1.00 ,7-702-924 D.V. 53,,,
374,JOSE ANGEL TREJOS GOMEZ,,,,JOSE ANGEL TREJOS GOMEZ,,,,,CHITRE,,,1.00 ,6-75-517 D.V. 53,,,
375,"GANADERA YISSEL, S.A.",,,,VIODELDA MORALES DE SORIANO,,,,,LAS TABLAS,,,1.00 ,1290-1561503-1 D.V. 64,,,
376,JUSTO EMILIO BARRIOS DOMINGUEZ,,,,JUSTO EMILIO BARRIOS DOMINGUEZ,,,,,LAS TABLAS,,,1.00 ,7-54-205 D.V. 23,,,
377,"GRUPO HIMALUAN, S.A.",,,,LUIS ANTONIO GUERRA RODRIGUEZ,,,66655010,.,"CHANGUINOLA, BOCAS DEL TORO, AVE. 17 DE ABRIL",,,1.00 ,618778-1356739-1 D.V. 41,,,
378,ADALBERTO MATA,,,,ADALBERTO MATA,,,,,CHITRE,,,1.00 ,N-19-1794 D.V. 04,,,
379,FRANCISCO ELIAS HERRERA DOMINGUEZ,,,,FRANCISCO ELIAS HERRERA DOMINGUEZ,,,,,,,,1.00 ,7-72-2424 D.V. 0 ,,,
380,GUILLERMO CHANIS SAENZ,,,,GUILLERMO CHANIS SAENZ,,,,,LAS TABLAS,,,1.00 ,7-36-392 D.V. 18,,,
381,RODRIGO ARMANDO VEGA CASTRO,,,,RODRIGO ARMANDO VEGA CASTRO,,,,,LAS TABLAS,,,1.00 ,7-94-2664 D.V. 57,,,
382,OMAR ANCELMO REYES GONZALEZ,,,,OMAR ANCELMO REYES GONZALEZ,,,,,LAS TABLAS,,,1.00 ,8-268-236 D.V. 22,,,
383,VICENTE BARRIA,,,,VICENTE BARRIA,,,,,LAS TABLAS,,,1.00 ,6-71-272 D.V. 40,,,
384,RAUL AUGUSTO CASTRO CABALLERO,,,,RAUL AUGUSTO CASTRO CABALLERO,,,,,LAS TABLAS,,,1.00 ,7-91-2672 D.V. 50,,,
385,AGUSTIN BANDA VEGA,,,,AGUSTIN BANDA VEGA,,,,,LOS SANTOS,,,1.00 ,7-77-452 D.V. 34,,,
386,"3D&L, S.A.",,,,HERIBERTO VEGA PÉREZ,,,970-1052,970-1934,"Prov. Herrera, Dist.Chitre, Corre. de Chitre (Cabecera) Urb. Luis Rios, Cl.Luis Rios,Edif. Luis Rios, Local  12",,,1.00 ,669489-1616960-1 D.V. 88,,,
387,DAMIAN ANTONIO RODRIGUEZ VERGARA,,,,DAMIAN ANTONIO RODRIGUEZ VERGARA,,,,,TONOSI,,,1.00 ,7-700-1262 D.V. 12,,,
388,"CALLES Y ASFALTO,S.A.",,,,OLGA JUDITH BARAHONA DE CASTRO,,,.,.,La paz de Chame,,,1.00 ,639896-1461075-1 D.V. 74,,,
389,HECTOR CARRASCO,,,,HECTOR CARRASCO,,,,,VERAGUAS,,,1.00 ,9-183-985 D.V. 06,,,
390,"CHANTAL CONSTRUCTORA, S.A.",,,,Virginia Hayskell Martinez Tapia,,,260-4394,391-2007,"Bethania, La Gloria, El Avance N°2 Casa N°7",,,1.00 ,414113-326796-1 D.V. 43,,,
391,"SERVICIOS GENERALES ASOCIADOS DE PANAMA,S.A.",,,,Desiree Darianne Aranda Gonzalez,,,6678-2949,278-2325,"Calzada Larga, Caimilillo, Calle Jerusalen, Casa 80",,,1.00 ,506533-857536-1 D.V. 63,,,
392,"INVERSIONES JONIAS,S.A.",,,,Olga Maria Guillen de Bellido,,,6679-6863,.,Via Ricardo J. alfaro Edif. Aventura Ofic. 353,,,1.00 ,370141-44336-1 D.V. 67,,,
393,"LUMATEC, S.A.",,,,JORGE LUIS GONZALEZ BARRIOS,,,260-8008,260-9661,"EDIFICIO DORADO MALL LOCAL 32 Y 33, EL DORADO, PANAMA",,,1.00 ,643066-1477021-1 D.V. 25,,,
394,"ILVEM PANAMA, S.A.",,,,Edgar Omar Quintero Gallardo,,,260-8008,260-9661,Centro Comercial Dorado Edif. Dorado Mall 1er Piso local 32 y 33,,,1.00 ,476260-734864-1 D.V. 62,,,
395,"CONSULTORES Y SUMINISTROS, S.A. (COSUSA)",,,,GUILLERMO ALFREDO CLARK CANO,,,213-7065,213-7075,"CALLE 47 BELLA VISTA, EDIF. AQUARIUM, OFIC. 3-B",,,1.00 ,591544-1242516-1 D.V. 88,,,
396,LISANDRO AURELIO ESPINO ACEVEDO,,,,LISANDRO AURELIO ESPINO ACEVEDO,,,,,LAS TABLAS,,,1.00 ,7-71-918 D.V. 33,,,
397,MANUEL DE JESUS GONZALEZ HERNANDEZ,,,,MANUEL DE JESUS GONZALEZ HERNANDEZ,,,,,LOS SANTOS,,,1.00 ,7-112-201 D.V. 30,,,
398,HECTOR JAVIER CAMPOS HERRERA,,,,HECTOR JAVIER CAMPOS HERRERA,,,,,OCU,,,1.00 ,6-78-754 D.V. 30,,,
400,"SISTEMAS Y DISEÑO,S.A.",,,,Mohamed Kabbani Al Satti,,,392-6640,392-6643,"Bella Vista, Calle 42, Edif Aguazul, Local G",,,1.00 ,620988-1367286-1 D.V. 46,,,
401,"INVERSIONES TUMACO, S.A.",,,,Harmodio Reinaldo Mudarra Velasquez,,,6450-2408,995-5174,"Calle Central, Frente al Parque de la Calle Arriba, Distrito de Macaracas, Provincia de Los Santos, Ciudad de Panamá.",,,1.00 ,545453-1042418-1 D.V. 17,,,
402,"GRUPO HD2L CONTRUCCTION INTERNATIONAL, S.A.",,,,Luis Alberto Vega Pérez,,,970-1934,970-1052,CHITRE CALLE AQUINO SANCHEZ,,,1.00 ,708484-1818010-1 D.V. 31,,,
403,ROBINSON EURIBIADES BERNAL CHAVEZ,,,,ROBINSON EURIBIADES BERNAL CHAVEZ,,,,,LAS TABLAS,,,1.00 ,3-717-442 D.V. 65,,,
404,"LIEM, S.A.",,,,Armando Robinson Moridon,,,6805-6241,.,La Chorrera Cl. Arturo del Valle Costado Estadio  de Baseball,,,1.00 ,404713-262466-1 D.V.   ,,,
405,ANGEL SANTOS SAAVEDRA MORENO,,,,ANGEL SANTOS SAAVEDRA MORENO,,,,,HERRERA,,,1.00 ,6-78-592 D.V. 30,,,
406,DIDIMO RODRIGUEZ GOMEZ,,,,DIDIMO RODRIGUEZ GOMEZ,,,,,,,,1.00 ,6-79-216 D.V. 26,,,
407,FNV Fernando Niño Velez,,,,Fernando Niño Velez,,,394-4620,6456-8566,Ave. Samuel Lewis Edificio Comosa,,,1.00 ,E-8-47646 D.V. 91,,,
408,"ITAL TECNO, S.A.",,,,CLAUDIO FAGIANO,,,3964672,3964672,"PLAZA DEL ESTE, LOCAL 8, CALLE PRINCIPAL",,,1.00 ,472899-720068-1 D.V.   ,,,
409,MIGUEL ANTONIO MELA MELGAR,,,,MIGUEL ANTONIO MELA MELGAR,,,,,LAS TABLAS,,,1.00 ,7-702-2316 D.V. 74,,,
410,"KARI INTERNATIONAL, S.A.",,,,JORGE RICARDO VELASQUEZ FLORS,,,390-5502,3905502,"CALLE JUSTO AROSEMENA CON CALLE38 E, PRIMER CHALET, CORREGIMIENTO DE SAN FRANCISCO",,,1.00 ,558804-1097411-1 D.V. 57,,,
411,LUIS ANTONIO GONZALEZ CALLES,,,,LUIS ANTONIO GONZALEZ CALLES,,,,,CHEPO,,,1.00 ,8-445-731 D.V. 07,,,
412,"QUANTIC VISION, S.A.",,,,DOMINIQUE VERVIN,,,300-0333,300-2286,"CLAYTON, CIUDAD DEL SABER, EDIF#237",,,1.00 ,466358-690868-1 D.V. 52,,,
413,MIGUEL ANGEL GARCIA ZAMBRANO,,,,MIGUEL ANGEL GARCIA ZAMBRANO,,,,,LAS TABLAS,,,1.00 ,7-101-609 D.V. 87,,,
414,"Construcciones y Ecología, S.A. (CONECOL)",,,,Yolan Moreno Romero,,,966-6131,966-6131,Cl San Judas Tadeo Casa-3731- Pueblo Nuevo Villa de los Santos,,,1.00 ,553364-1076177-1 D.V. 46,,,
415,JUAN JOSE CHAVEZ GONZALEZ,,,,JUAN JOSE CHAVEZ GONZALEZ,,,,,HERRERA,,,1.00 ,6-63-132 D.V. 34,,,
416,"BUSINESSES AND CONSTRUCTION GROUP, S.A.",,,,JORGE LUIS GONZÁLEZ BARRIOS,,,260-8008,260-9661,"CENTRO COMERCIAL PLAZA DEL GOLF, LOCAL 6, 2do PISO",,,1.00 ,553271-1075777-1 D.V. 80,,,
417,"GRUPO ARIZONA DE PANAMÁ, S.A.",,,,Edonay Caballero Gomez,,,209-6775,6671-7736,Ave. Ramón Arias Edif. D-3 local 1 Planta Baja,,,1.00 ,693353-1735795-1 D.V. 64,,,
418,"CORPORACION MULTI EQUIPOS, S.A.",,,,Nadia Yaniseth Corro,,,6781-2940,910-1017,"Urb. El Vigia ,Chitre",,,1.00 ,674518-1650538-1 D.V. 51,,,
419,REINALDO AUGUSTO VIGIL BATISTA,,,,REINALDO AUGUSTO VIGIL BATISTA,,,,,LAS TABLAS,,,1.00 ,7-91-1202 D.V. 33,,,
420,MIGUEL ANTONIO DOMINGUEZ HERRERA,,,,MIGUEL ANTONIO DOMINGUEZ HERRERA,,,.,.,LOS SANTOS,,,1.00 ,7-91-2020 D.V. 43,,,
421,JUSTINO ONEL ACEVEDO BARRIOS,,,,JUSTINO ONEL ACEVEDO BARRIOS,,,,,CHITRE,,,1.00 ,7-704-391 D.V. 08,,,
422,"Aluminio Estructural, S.A.",,,,Hernan Paulino Salazar Mendez,,,217-1417,217-1063,Cl. 3ra Llano Bonito Juan Díaz,,,1.00 ,78357-7012-34 D.V. 53,,,
423,ERIS ALBERTO HERRERA MARIN,,,,ERIS ALBERTO HERRERA MARIN,,,,,HERRERA,,,1.00 ,6-85-714 D.V. 62,,,
424,ESPEDITO ANEL VASQUEZ CORTES,,,,ESPEDITO ANEL VASQUEZ CORTES,,,,,DARIÉN,,,1.00 ,5-700-329 D.V. 20,,,
425,"INVESTIGACIONES Y DESARROLLO GLOBAL, S.A.",,,,ROLANDO ERNESTO DE LEÓN PLICET,,,260-8008,260-9661,"CALLE 53, EDIF ROYAL CENTER, TORRE C, 2DO PISO, LOCAL 238, PAITILLA",,,1.00 ,683302-1685699-1 D.V. 91,,,
426,DIEGO BARBA,,,,DIEGO BARBA,,,,,LAS TABLAS,,,1.00 ,6-76-480 D.V. 62,,,
427,"INVERSIONISTAS DE  CONSTRUCCION, S.A.",,,,Maximo Quezada Valderrama,,,830-5567,.,"Villa Caceres, Bethania, Casa 378",,,1.00 ,676403-1654888-1 D.V. 09,,,
428,"CALYPSO INVESTMENT, CORP",,,,Luis Antonio Jaen Martinez,,,830-5567,.,"Urbanizacion Romeral, Casa 34",,,1.00 ,712876-1846454-1 D.V. 11,,,
429,"PAN AMERICA CONSTRUCTION, CORP.",,,,Yoris Nelly Pinto Arauz,,,830 5567,.,"Calle 53, Edificio Hi Tech",,,1.00 ,676394-1654792-1 D.V. 34,,,
430,"MATERIALES AGREGADOS Y EQUIPOS, S.A. (MAESA)",,,,Jose Manuel Garcia Corella,,,392-6947,392-6948,"El Dorado,  Edif Sun Tower PB 23",,,1.00 ,731630-1949620-1 D.V. 12,,,
431,JULIO CESAR DOMINGUEZ RODRIGUEZ,,,,JULIO CESAR DOMINGUEZ RODRIGUEZ,,,.,.,LAS TABLAS,,,1.00 ,7-705-2376 D.V. 11,,,
432,MELVIN ALEXIS AMORES VASQUEZ,,,,MELVIN ALEXIS AMORES VASQUEZ,,,,,LAS TABLAS,,,1.00 ,5-712-1329 D.V. 81,,,
433,ADOLFO CASTRO,,,,ADOLFO CASTRO,,,,,LAS TABLAS,,,1.00 ,7-76-992 D.V. 00,,,
434,JAVIER ALEXIS CARRASCO JAEN,,,,JAVIER ALEXIS CARRASCO JAEN,,,,,LAS TABLAS,,,1.00 ,7-115-760 D.V. 10,,,
435,"INVERSIONES ROMIAN, S.A.",,,,ROMANO TARDUGNO,,,64237914,,"24 DE DICIEMBRE, URB. CABRA, FINCA 13564 CALLE VIA PANAMERICANA CASA 13564",,,1.00 ,702919-1786170-1 D.V. 6 ,,,
436,ABILIO ANDRES BARRIOS VILLARRERAL,,,,ABILIO ANDRES BARRIOS VILLARRERAL,,,,,LAS TABLAS,,,1.00 ,7-705-158 D.V. 05,,,
437,"TRIMMARK SOLUTION,S.A.",,,,ERYLESS YENARIES ARCE VARGAS DE ESPINOSA,,,221-8300,,"PUEBLO NUEVO, CALLE 22, LOMA BONITA, OFIC 19",,,1.00 ,420325-371120-1 D.V.   ,,,
438,PAULINO ABDIEL DOMINGUEZ ESPINOSA,,,,PAULINO ABDIEL DOMINGUEZ ESPINOSA,,,,,LAS TABLAS,,,1.00 ,7-702-193 D.V. 73,,,
439,IRVIN LENIN PEREZ FERNANDEZ,,,,IRVIN LENIN PEREZ FERNANDEZ,,,,,LAS TABLAS,,,1.00 ,9-718-1891 D.V. 33,,,
440,ROQUE DUARTES ALVAREZ,,,,ROQUE DUARTES ALVAREZ,,,,,LAS TABLAS,,,1.00 ,4-203-811 D.V. 45,,,
441,CAMILO RIO PEREZ,,,,CAMILO RIO PEREZ,,,,,LAS TABLAS,,,1.00 ,9-114-2567 D.V. 13,,,
442,MATIAS DANILO DOMINGUEZ REYES,,,,MATIAS DANILO DOMINGUEZ REYES,,,,,LAS TABLAS,,,1.00 ,7-69-2092 D.V. 22,,,
443,"BIO CIENTIFICA, S.A.",,,,BERNARDO ALVAREZ BUSTAMENTE,,,225-0648,225-4467,"Ave. Cuba,cl 39, edif. Tarraco, local 2",,,1.00 ,405797-268959-1 D.V.   ,,,
444,PORFIRIO MORENO,,,,PORFIRIO MORENO,,,,,LAS TABLAS,,,1.00 ,4-74-456 D.V. 81,,,
445,EIDIS ALEXANDER DE LEON VELASQUEZ,,,,EIDIS ALEXANDER DE LEON VELASQUEZ,,,,,LAS TABLAS,,,1.00 ,7-701-929 D.V. 22,,,
446,"GRUPO NAUTIMAR, S.A.",,,,FERNANDO ANTONIO RAMOS OSTIA,,,392-7964,.,"BELLA VISTA, EDIFICIO ROSALÍA, CL 38",,,1.00 ,630485-1414920-1 D.V. 80,,,
447,MARIO DE GRACIA,,,,MARIO DE GRACIA,,,,,LAS TABLAS,,,1.00 ,7-91-1993 D.V. 10,,,
448,"EMPRESAS FARMOR,S.A.",,,,ALEXIS RICARDO FARNUM,,,3921223,,"RIO ABAJO, EDIF. TOM CENTER.LOCAL 222 -A ",,,1.00 ,666289-1600781-1 D.V.   ,,,
449,ANGEL VALENTIN RODRIGUEZ VERGARA,,,,ANGEL RODRIGUEZ VERGARA,,,,,LAS TABLAS,,,1.00 ,7-704-58 D.V. 07,,,
450,FRANCISCO A. MONTENEGRO M.,,,,FRANCISCO A. MONTENEGRO M.,,,,,LAS TABLAS,,,1.00 ,7-98-889 D.V. 75,,,
451,RAMIRO JESUS TREJO GOMEZ,,,,RAMIRO JESUS TREJO GOMEZ,,,,,LAS TABLAS,,,1.00 ,6-58-652 D.V. 52,,,
452,ALCIBIADES PERALTA,,,,ALCIBIADES PERALTA,,,,,LAS TABLAS,,,1.00 ,9-159-123 D.V. 27,,,
453,ROMELIA MELA DE LEON DE SANCHEZ,,,,ROMELIA MELA DE LEON DE SANCHEZ,,,,,LAS TABLAS,,,1.00 ,9-127-568 D.V. 20,,,
454,"FERMIN CHAN,S.A.",,,,Fermin Tomas Chan Fung,,,212-1033,212-1022,Avenida Mexico y Calle 23,,,1.00 ,70059-321-440 D.V. 63,,,
455,ALFREDO CORTEZ FRIAS,,,,ALFREDO CORTEZ FRIAS,,,,,,,,1.00 ,7-72-2049 D.V. 08,,,
456,WORLD CLEAN INTERNATIONAL,,,,CARLOS MORENO,,,2222324,,,,,1.00 ,1773592-1-700486 D.V. 24,,,
457,CONCEPCION GONZALEZ BARRIOS,,,,CONCEPCION GONZALEZ BARRIOS,,,,,,,,1.00 ,9-140-908 D.V. 44,,,
458,EDWIN ARTEMIO RODRIGUEZ FRIAS,,,,EDWIN ARTEMIO RODRIGUEZ FRIAS,,,,,LAS TABLAS,,,1.00 ,8-994-1321 D.V. 20,,,
459,PACIFICO A. VEGA,,,,PACIFICO A. VEGA,,,.,.,LAS TABLAS,,,1.00 ,9-144-143 D.V. 67,,,
460,SEBASTIAN ANTONIO MARIN PEÑA,,,,SEBASTIAN ANTONIO MARIN PEÑA,,,,,,,,1.00 ,9-147-843 D.V. 12,,,
461,"IMPORTADORA Y DISTRIBUIDORA GALAXIA,S.A.",,,,RONY RAUL GUERRA CABALLERO,,,392-5677,398-1671,"Ave.Peru, Cl 36, Edif. Arboix, Piso1,Oficina 6",,,1.00 ,610788-1322076-1 D.V. 03,,,
462,AMSTER CORP.,,,,Heriberto Vega Perez,,,678-16209,.,"Cerro Viento, Calle C, casa C",,,1.00 ,627678-1399916-1 D.V. 94,,,
463,"SUMINISTRO DEL PACIFICO GENERAL,CORP.",,,,ERICK  ALBERTO BROSSARD GARCIA,,,229-0265,229-3308,"Via Fernandez de Cordoba,Pl Agora, L 15",,,1.00 ,676675-1656266-1 D.V. 43,,,
464,DIGIMART INTERNATIONAL CORP.,,,,EDGAR GONZALEZ,,,221-2250,.,Centro Comercial Tocumen Local 12,,,1.00 ,710834-1833983-1 D.V. 25,,,
465,YOBANY ANTONIO DOMINGUEZ MARTINEZ,,,,YOBANY ANTONIO DOMINGUEZ MARTINEZ,,,,,,,,1.00 ,8-764-511 D.V. 07,,,
466,"PROYECTO Y CONSTRUCCIONES CANAIMA,S.A.",,,,ESTEBAN TEJEDOR MARTINEZ,,,297-5112,297-5112,"Edif Excelesior Calle 50, Torre B, Piso 7",,,1.00 ,712301-1842739-1 D.V. 33,,,
467,LIDYA GONZALEZ BARRIA,,,,LIDYA GONZALEZ BARRIA,,,,,,,,1.00 ,6-56-2455 D.V. 06,,,
468,MARIO DE GRACIA CASTRO,,,,MARIO DE GRACIA CASTRO,,,,,,,,1.00 ,7-91-1963 D.V. 02,,,
469,"FARMA MEDIC INVESTMENT, S.A.",,,,CARLOS HUGO HERVEY VILLARREAL,,,279-0791,279-0791,"Ave. La Amistad, Bethania",,,1.00 ,396395-207959-1 D.V. 54,,,
470,LUIS ALBERTO VEGA PEREZ,,,,LUIS ALBERTO VEGA PEREZ,,,6560-4704,970-1052,"Chitre,Calle Thomas Aquino Sanchez",,,1.00 ,6-709-396 D.V.   ,,,
471,"IMPORTACIONES Y VENTAS PRICA, S.A.",,,,Danilo Ricardo Caballero Miranda,,,3925677,.,"Bella Vista, Urb. El Carmen, Calle Ramon Arias.  Edif. Ropardi Apto. 3 A",,,1.00 ,734871-1968454-1 D.V. 90,,,
472,MARILIN CASTILLO (INDUSTRIAS AGROSERVICIOS ROMAC),,,,MARILIN CASTILLO,,,2515688,,,,,1.00 ,8-722-687 D.V. 91,,,
473,"ELMY INTL, S.A.",,,,Eliseo Martin Alvarez Graell,,,9085550,9085558,"Penonome, Villa Cumbrera 1, Local 52 B",,,1.00 ,573562-1160179-1 D.V. 93,,,
474,MAX GEAR INC.,,,,Marco Antonio Bosquez Flores,,,393-1925,830-5567,"Obarrio, Cl Via España, Edif Brasilia, Local 8",,,1.00 ,604467-1296839-1 D.V. 83,,,
475,"DISTRIBUIDORA RALI,S.A.",,,,Ramon Carretero Napolitano,,,220-3844,220-3844,"Via Tocumen, Frente a la Gliden",,,1.00 ,268716-37738-28 D.V. 96,,,
476,"Proveedora General de Abasto, S.A.",,,,Fabian Eduardo Gonzalez Martinez,,,830-5567,239-2667,"Club de Bethania, Casa 536",,,1.00 ,712276-1842693-1 D.V. 61,,,
477,"YELMA INTL,S.A",,,,Eliseo Martin Alvarez Graell,,,908-5550,908-5558,"Urbanización Villa Cumbrera, Calle Primera Casa 41ª.",,,1.00 ,713288-1848715-1 D.V. 30,,,
478,COUNTRY MAX S.A.,,,,Armando Cristobal Karamañitis Riasco,,,395-3233,830-5567,"Centro Comercial Los Pueblos2, L 2-23",,,1.00 ,710900-1834350-1 D.V. 58,,,
479,"ECO CARIBE, S.A.",,,,Jorge Luis Herrera Pérez,,,270-2543,830-5574,"Urbanizacion Coco del Mar, Apt 6",,,1.00 ,604446-1296775-1 D.V. 40,,,
480,"ULTRATECH INTERNATIONAL ENTERPRISES, S.A.",,,,Felix Fallabella Napolitano,,,392-3800,830-5567,"Century Tower, Piso 8, Oficina 803",,,1.00 ,407376-280658-1 D.V. 54,,,
481,Hernando Castro,,,,Hernando Castro,,,,,Las Tablas,,,1.00 ,7-102-390 D.V. 42,,,
482,"FAVIP, S.A.",,,,Luis Poveda Batista,,,6721-1811,.,"CHITRE, AVE. HERRERA - A LADO DE LA NOTARIA  OFICINA - No. 20",,,1.00 ,735765-1972930-1 D.V. 48,,,
483,,,,,,,,,,,,,1.00 ,-- D.V.   ,,,
484,"Proyectos y Construcciones del Este, S.A",,,,Rocio Nicole Tem Viluce,,,2212227,2243770,"Calle 8va.Pueblo Nuevo, Residencial La Amistad #2",,,1.00 ,577047-1175419-1 D.V. 52,,,
485,PRAXEDES MORENO PIMENTEL,,,,PRAXEDES MORENO PIMENTEL,,,6612-5114,.,LAS TABLAS,,,1.00 ,9-105-334 D.V. 21,,,
486,aa,,,,aa,,,,,,,,1.00 ,88-88-888 D.V.   ,,,
487,aaabbb,,,,aa,,,,,,,,1.00 ,777-777-777 D.V.   ,,,
488,RIGOBERTO RODRIGUEZ VERGARA,,,,RIGOBERTO RODRIGUEZ VERGARA,,,.,.,LAS TABLAS,,,1.00 ,7-72-2155 D.V. 19,,,
489,YANELA RIVERA DE GRACIA,,,,YANELA RIVERA DE GRACIA,,,.,.,CHITRE,,,1.00 ,6-80-878 D.V. 02,,,
490,"CDP DIGITAL, S.A.",,,,Nicole de la Guardia Vial,,,396-7941,.,"La Gloria,18 D Norte, Plaza Aventura M7",,,1.00 ,228918-399632-1 D.V.   ,,,
491,CARLOS VALVERDE RECUERO,,,,CARLOS VALVERDE,,,.,.,LAS TABLAS,,,1.00 ,3-89-1681 D.V. 95,,,
492,FLORENTINO SAMANIEGO MELENDEZ,,,,FLORENTINO SAMANIEGO MELENDEZ,,,6674-4040,.,LAS TABLAS,,,1.00 ,6-86-332 D.V. 29,,,
493,DILSA PASTORA RIVERA DE CARDENAS,,,,DILSA PASTORA RIVERA DE CARDENAS,,,.,.,LAS TABLAS,,,1.00 ,7-92-1339 D.V. 23,,,
494,JAIME EURIVIADES SAEZ DE GRACIA,,,,JAIME EURIVIADES SAEZ DE GRACIA,,,.,.,LAS TABLAS,,,1.00 ,7-96-213 D.V. 10,,,
495,ALGIS AURELIO GARCIA CEDEÑO,,,,ALGIS AURELIO GARCIA CEDEÑO,,,.,.,LAS TABLAS,,,1.00 ,6-701-599 D.V. 94,,,
496,JUVENAL CASTILLO,,,,JUVENAL CASTILLO,,,.,.,LAS TABLAS,,,1.00 ,9-105-1549 D.V. 97,,,
497,EDGAR ARIEL OSORIO DIAZ,,,,EDGAR ARIEL OSORIO DIAZ,,,.,.,LAS TABLAS,,,1.00 ,7-117-292 D.V. 55,,,
498,MODESTO JULIO PERALTA DIAZ,,,,MODESTO JULIO PERALTA DIAZ,,,.,.,LAS TABLAS,,,1.00 ,7-94-2176 D.V. 77,,,
499,JUAN BENAVIDES FRIAS,,,,JUAN BENAVIDES FRIAS,,,.,.,LAS TABLAS,,,1.00 ,5-711-1962 D.V. 43,,,
500,ARNULFO DOMINGUEZ MENDOZA,,,,ARNULFO DOMINGUEZ MENDOZA,,,,,LAS TABLAS,,,1.00 ,6-48-1205 D.V. 02,,,
501,EDWIN RUGIER MENESES BARRAGAN,,,,EDWIN RUGIER MENESES BARRAGAN,,,,,PENONOMÉ,,,1.00 ,2-102-2003 D.V. 06,,,
502,DIOGENES ENRIQUE VEGA ESCOBAR,,,,DIOGENES ENRIQUE VEGA ESCOBAR,,,,,LAS TABLAS,,,1.00 ,6-73-873 D.V. 88,,,
503,JUAN ORIEL ESCOBAR DOMINGUEZ,,,,JUAN ORIEL ESCOBAR DOMINGUEZ,,,,,LAS TABLAS,,,1.00 ,7-103-58 D.V. 50,,,
504,"INVERSIONES YANELIS,S.A.",,,,AIXA YABETH MADRID,,,908-5558,908-5558,"PENONOME, BARRIADA EL PRADO SEGUNDA EL PRADO 78",,,1.00 ,765018-2148661-1 D.V. 28,,,
505,MANUEL SANTOYA,,,,MANUEL SANTOYA,,,6668-5611,399-0364,SANTA LIBRADA CALLE PRINCIPAL CASA NO.287 CORREGIMIENTO DE BELISARIO PORRAS DISTRITO DE SAN MIGUELITO PROVINCIA DE PANAMA,,,1.00 ,8-742-1719 D.V. 10,,,
506,ERIC ELIAS DOMINGUEZ DOMINGUEZ,,,,ERIC ELIAS DOMINGUEZ DOMINGUEZ,,,,,LAS TABLAS,,,1.00 ,7-107-748 D.V. 79,,,
507,JUAN LUIS CASTILLO ESPINO,,,,JUAN LUIS CASTILLO ESPINO,,,,,LAS TABLAS,,,1.00 ,7-72-897 D.V. 00,,,
508,"INGENIERIA R.E.C.,S.A.",,,,Eduardo Di Bello Robles,,,229-1539,261-3998,"Vista Hermosa, Cl. Francisco Filos, No.74",,,1.00 ,223760-26408-2 D.V. 44,,,
509,IGNACIO ESMID DE FRIAS DE LEON,,,,IGNACIO ESMID DE FRIAS DE LEON,,,.,.,LAS TABLAS,,,1.00 ,7-109-648 D.V. 87,,,
510,Santiago Raúl Aguila Arosemena,,,,Santiago Aguila,,,,,Santiago,,,1.00 ,8-510-145 D.V. 87,,,
511,EIDIS IDALDO GOMEZ BERNAL,,,,EIDIS IDALDO GOMEZ BERNAL,,,,,LAS TABLAS,,,1.00 ,6-705-334 D.V. 65,,,
512,EDWARDO JAVIER CORTES,,,,EDWARDO JAVIER CORTES,,,,,LAS TABLAS,,,1.00 ,7-710-271 D.V. 86,,,
513,CARLOS AUGUSTO CIGARRUISTA BERNAL,,,,CARLOS AUGUSTO CIGARRUISTA BERNAL,,,.,.,LAS TABLAS,,,1.00 ,7-707-2186 D.V. 39,,,
514,MIGUEL ANGEL ABREGO GONZALEZ,,,,MIGUEL ANGEL ABREGO GONZALEZ,,,,,SANTIAGO,,,1.00 ,9-97-1448 D.V. 44,,,
515,EUSTIQUIO BALLESTEROS VERGARA,,,,EUSTIQUIO BALLESTEROS VERGARA,,,,,LAS TABLAS,,,1.00 ,7-707-1225 D.V. 26,,,
516,HILDA MARIA MORENO PIMENTEL,,,,HILDA MARIA MORENO PIMENTEL,,,,,SANTIAGO,,,1.00 ,9-84-1342 D.V. 53,,,
517,ARCELIO MANUEL PINZÓN GONZALEZ,,,,ARCELIO MANUEL PINZÓN GONZALEZ,,,,,AGUADULCE,,,1.00 ,2-94-239 D.V. 28,,,
518,LEOPOLDO CORTEZ,,,,LEOPOLDO CORTEZ,,,,,LAS TABLAS,,,1.00 ,7-53-910 D.V. 02,,,
519,ALFONSO WILFREDO PINTO RODRIGUEZ,,,,ALFONSO WILFREDO PINTO RODRIGUEZ,,,,,SANTIAGO,,,1.00 ,9-700-1105 D.V. 41,,,
520,"COMERCIALIZADORA Y SUMINISTRO DAROGUE,S.A.",,,,Genesis Rodriguez Guillen,,,,.,CALIDONIA AVE PERU Y CALLE 36 EDF ARBOIX PISO 1 LOCAL 6,,,1.00 ,764246-2143927-1 D.V. 71,,,
521,SUMINISTROS PANAMA-PTY-S.A.,,,,JULIANA LLANELIS ABREGO MADRIGAL,,,3925677,.,URBANIZACION CALIDONIA AVENIDA PERU CALLE 36 EDIFICIO ARBOIX PISO 1 LOCAL 6,,,1.00 ,764290-2144134-1 D.V. 34,,,
522,DAROGUE MANAGEMENT INC,,,,ANNETTE DEL CARMEN ALBA BARRIOS,,,398-1671,398-1671,CALIDONIA AVE PERU CALLE 36 EDIFICIO ARBOIX PISO 1 LOCAL 6,,,1.00 ,764291-2144137-1 D.V. 95,,,
523,ARISTIDES ORIEL REINA MURILLO,,,,ARISTIDES ORIEL REINA MURILLO,,,,,SANTIAGO,,,1.00 ,9-700-2180 D.V. 75,,,
524,MARÍA JULIA RINCÓN GALINDO,,,,MARÍA JULIA RINCÓN GALINDO,,,,,LAS TABLAS,,,1.00 ,E-8-74499 D.V. 40,,,
525,LUIS ALBERTO PEÑA BARRIOS,,,,LUIS ALBERTO PEÑA BARRIOS,,,,,PANAMÁ,,,1.00 ,8-211-510 D.V. 91,,,
526,"DIANBAR FARMACEUTICA, S.A.",,,,CAROLINA NAIR BARRIOS DIANOUS,,,323-1009,323-1006,"VÍA ESPAÑA, PLAZA LAS PIRAMIDES LOCAL N°12",,,1.00 ,378264-98079-1 D.V. 85,,,
527,RUBEN VELARDE GAITAN,,,,RUBEN VELARDE GAITAN,,,,,CHITRÉ,,,1.00 ,6-80-811 D.V. 03,,,
528,"LUMARLO,S.A",,,,ELENA DEL CARMEN FERGUSON DE CANO,,,.,.,EL CARMEN URBANIZACION HERBURGUER EDF EL PAICAL LOCAL 4,,,1.00 ,260878-35680-2 D.V.   ,,,
529,ADOLFO CASTRO ATENCIO,,,,ADOLFO CASTRO ATENCIO,,,,,SANTIAGO,,,1.00 ,9-220-326 D.V. 04,,,
530,DIMAS VELASQUEZ BATISTA,,,,DIMAS VELASQUEZ BATISTA,,,,,LAS TABLAS,,,1.00 ,7-62-771 D.V. 81,,,
531,RUBEN ANTONIO PEREZ DE LEON,,,,RUBEN ANTONIO PEREZ DE LEON,,,,,LAS TABLAS,,,1.00 ,8-793-72 D.V. 59,,,
532,OLIVIA ZARZAVILLA DE DÍAZ,,,,OLIVIA ZARZAVILLA DE DÍAZ,,,,,GUARARÉ,,,1.00 ,7-81-621 D.V. 77,,,
533,CARLOS GARCIA VERGARA,,,,CARLOS GARCIA VERGARA,,,,,LAS TABLAS,,,1.00 ,7-701-1796 D.V. 10,,,
534,DANIEL POLANCO SANCHEZ,,,,DANIEL POLANCO SANCHEZ,,,,,PENONOMÉ,,,1.00 ,2-715-654 D.V. 63,,,
535,VICENTE ARCIA SAMANIEGO,,,,VICENTE ARCIA SAMANIEGO,,,.,.,SANTIAGO,,,1.00 ,9-208-904 D.V. 16,,,
536,DEMETRIO GARCIA DOMINGUEZ,,,,DEMETRIO GARCIA DOMINGUEZ,,,.,.,LAS TABLAS,,,1.00 ,7-88-855 D.V. 06,,,
537,"CONSTRUCCIONES Y EQUIPOS INTERNACIONALES ,S.A.",,,,YOLANDA MARINA GONZALEZ PEÑALOZA,,,278-2325,278-2326,"Transistmica, Edificio Mil",,,1.00 ,619431-1359651-1 D.V. 00,,,
538,VICTOR DIAZ MUÑOZ,,,,VICTOR DIAZ MUÑOZ,,,.,.,LAS TABLAS,,,1.00 ,7-80-984 D.V. 03,,,
539,GABRIEL CARDENAS MORALES,,,,GABRIEL CARDENAS MORALES,,,.,.,LAS TABLAS,,,1.00 ,7-700-783 D.V. 07,,,
540,IGNACIO DE FRIAS SAEZ,,,,IGNACIO DE FRIAS SAEZ,,,.,.,CHITRE,,,1.00 ,7-41-747 D.V. 63,,,
541,LEONOR ULISES CASTILLERO VEGA,,,,LEONOR ULISES CASTILLERO VEGA,,,.,.,SANTIAGO,,,1.00 ,9-706-1015 D.V.   ,,,
542,KAREN YARABYS QUINTERO SANTOS DE VARGAS,,,,KAREN YARABYS QUINTERO SANTOS DE VARGAS,,,.,.,SANTIAGO,,,1.00 ,9-729-1968 D.V. 19,,,
543,EDICTA ZUNILDA DOMINGUEZ VERGARA,,,,EDICTA ZUNILDA DOMINGUEZ VERGARA,,,.,.,LAS TABLAS,,,1.00 ,7-97-111 D.V.   ,,,
544,JUAN BAUTISTA BERNAL VEGA,,,,JUAN BAUTISTA BERNAL VEGA,,,.,.,LAS TABLAS,,,1.00 ,7-92-2622 D.V. 37,,,
545,ABRAHAM CASTILLO DE LEON,,,,ABRAHAM CASTILLO DE LEON,,,.,.,CHITRE,,,1.00 ,6-75-462 D.V. 45,,,
546,ARQUIMEDES REYNALDO BATISTA DOMINGUEZ,,,,ARQUIMEDES REYNALDO BATISTA DOMINGUEZ,,,,,LAS TABLAS,,,1.00 ,7-705-2171 D.V. 81,,,
547,VALENTIN RIOS FRIAS,,,,VALENTIN RIOS FRIAS,,,,,LAS TABLAS,,,1.00 ,7-51-573 D.V. 56,,,
548,BAUDILIO DOMINGUEZ CORTEZ,,,,BAUDILIO DOMINGUEZ CORTEZ,,,,,LAS TABLAS,,,1.00 ,7-107-442 D.V. 95,,,
549,BORIS RENE RODRIGUEZ JIMENEZ,,,,BORIS RENE RODRIGUEZ JIMENES,,,,,PANAMÁ,,,1.00 ,8-263-261 D.V. 56,,,
550,HECTOR AMADOR PEREZ MENDIETA,,,,HECTOR AMADOR PEREZ MENDIETA,,,,,LAS TABLAS,,,1.00 ,7-116-229 D.V. 83,,,
551,EUGENIO LEOPOLDO CANO GONZALEZ,,,,EUGENIO LEOPOLDO CANO GONZALEZ,,,,,LAS TABLAS,,,1.00 ,7-56-230 D.V. 05,,,
552,OSCAR ANTONIO MOLINA RIVERA,,,,OSCAR ANTONIO MOLINA RIVERA,,,,,LAS TABLAS,,,1.00 ,7-75-895 D.V. 54,,,
553,"FABRICA COMERCIALIZADORA Y SERVICIOS PANAMA, S.A.",,,,Eric Ivan Lezcano Hernandez,,,314-1312,314-0206,"Urb. Ancon, calle La Boca- Edif. Balboa Business Center apt. 102",,,1.00 ,573702-1160959-1 D.V. 9 ,,,
554,JOSE VENANCIO CARDENAS MORCILLO,,,,JOSE VENANCIO CARDENAS MORCILLO,,,,,LAS TABLAS,,,1.00 ,7-703-2322 D.V. 58,,,
555,HECTOR CASTRO VEGA,,,,HECTOR CASTRO VEGA,,,,,,,,1.00 ,7-101-567 D.V.   ,,,
556,"INTERNATIONAL MUNITIONS & EXPLOSIVES, S.A.",,,,Maria Napolitano Talento,,,392-7915,392-7919,"Via Omar Torrijos, Ancon, Edif. Pan Canal Plz, L 112",,,1.00 ,452532-606765-1 D.V.   ,,,
557,RAMIRO ALBERTO ESPINO SOLIS,,,,RAMIRO ALBERTO ESPINO SOLIS,,,,,LAS TABLAS,,,1.00 ,7-106-586 D.V. 33,,,
558,PEDRO JOSE DE LEON GALVEZ,,,,PEDRO JOSE DE LEON GALVEZ,,,,,LAS TABLAS,,,1.00 ,6-710-900 D.V. 41,,,
559,FRANKLIN ELIECER RIVERA VEGA,,,,FRANKLIN ELIECER RIVERA VEGA,,,,,LAS TABLAS,,,1.00 ,7-92-1027 D.V. 00,,,
560,CRESCENCIO GONZALEZ QUINTERO,,,,CRESCENCIO GONZALEZ QUINTERO,,,,,LAS TABLAS,,,1.00 ,7-704-1359 D.V. 21,,,
561,CLAUDIO JOSE LACAYO ALVAREZ,,,,CLAUDIO JOSE LACAYO ALVAREZ,,,.,.,.,,,1.00 ,4-101-2344 D.V.   ,,,
562,"MIL-SPEC INTERNATIONAL, CORP",,,,Erick Alberto Brossard Garcia,,,830-5545,6618-4810,"Plaza Agora, local 15",,,1.00 ,538529-1011999-2 D.V.   ,,,
563,SEVERINO ANTONIO VEGA MONTENEGRO,,,,SEVERINO ANTONIO VEGA MONTENEGRO,,,,,LAS TABLAS,,,1.00 ,7-702-1961 D.V. 51,,,
564,GLORIA SOLIS DE AKAOKA,,,,GLORIA SOLIS DE AKAOKA,,,,,LAS TABLAS,,,1.00 ,7-72-1690 D.V. 61,,,
565,FRANCISCO JAVIER GONZALEZ FLORES,,,,FRANCISCO JAVIER GONZALEZ FLORES,,,,,LAS TABLAS,,,1.00 ,6-57-821 D.V. 46,,,
566,SERGIO ANTONIO MEDINA VASQUEZ,,,,SERGIO ANTONIO MEDINA VASQUEZ,,,,,LAS TABLAS,,,1.00 ,7-108-953 D.V. 05,,,
567,ESTEBAN CESAR DOMINGUEZ VELASQUEZ,,,,ESTEBAN CESAR DOMINGUEZ VELASQUEZ,,,,,LAS TABLAS,,,1.00 ,7-122-812 D.V. 04,,,
568,ROBERTO CARLOS GONZALEZ DOMINGUEZ,,,,ROBERTO CARLOS GONZALEZ DOMINGUEZ,,,,,LAS TABLAS,,,1.00 ,7-702-2425 D.V. 28,,,
569,IRVING EVIDEL ESTRADA CHAVEZ,,,,IRVING EVIDEL ESTRADA CHAVEZ,,,,,LAS TABLAS,,,1.00 ,7-703-1314 D.V. 94,,,
570,DANIEL ANTONIO MORENO RODRIGUEZ,,,,DANIEL ANTONIO MORENO RODRIGUEZ,,,,,LAS TABLAS,,,1.00 ,6-53-1175 D.V. 00,,,
571,FULVIA ISABEL VERGARA,,,,FULVIA ISABEL VERGARA,,,,,LAS TABLAS,,,1.00 ,7-119-943 D.V. 97,,,
572,BENIGNO ALEXIS RODRIGUEZ VASQUEZ,,,,BENIGNO ALEXIS RODRIGUEZ VASQUEZ,,,,,LAS TABLAS,,,1.00 ,7-92-2310 D.V. 03,,,
573,MARCO ANSELMO GONZALEZ NIETO,,,,MARCO ANSELMO GONZALEZ NIETO,,,,,LAS TABLAS,,,1.00 ,7-701-2235 D.V. 39,,,
574,ANEL CUBILLA MONTENEGRO,,,,ANEL CUBILLA MONTENEGRO,,,,,LAS TABLAS,,,1.00 ,5-700-160 D.V. 54,,,
575,JOSE LUIS VERGARA BARRIA,,,,JOSE LUIS VERGARA BARRIA,,,,,LAS TABLAS,,,1.00 ,7-706-1946 D.V. 64,,,
576,ERNESTO MARIN MELENDEZ,,,,ERNESTO MARIN MELENDEZ,,,,,LAS TABLAS,,,1.00 ,7-99-642 D.V. 11,,,
577,JACINTO VILLAREAL CASTILLO,,,,JACINTO VILLAREAL CASTILLO,,,,,LAS TABLAS,,,1.00 ,7-50-464 D.V. 67,,,
578,HAMED ANTONIO GARCIA,,,,HAMED ANTONIO GARCIA,,,,,LAS TABLAS,,,1.00 ,7-702-1524 D.V. 56,,,
579,DIOGENES ENCARNACIÓN OSORIO DIAZ,,,,DIOGENES ENCARNACIÓN OSORIO DIAS,,,,,LAS TABLAS,,,1.00 ,7-110-744 D.V. 13,,,
580,GONZALO EPIFANIO CORDOBA,,,,GONZALO EPIFANIO CORDOBA,,,,,LAS TABLAS,,,1.00 ,7-45-794 D.V. 21,,,
581,DORIS ELENA FRANCO SANCHEZ,,,,DORIS ELENA FRANCO SANCHEZ,,,,,LAS TABLAS,,,1.00 ,7-54-946 D.V. 40,,,
582,ISABEL REINA CASTILLO GARCIA,,,,ISABEL REINA CASTILLO GARCIA,,,,,LAS TABLAS,,,1.00 ,7-85-517 D.V. 70,,,
583,ORLANDO DE GRACIA MORENO,,,,ORLANDO DE GRACIA MORENO,,,,,LAS TABLAS,,,1.00 ,7-94-1255 D.V. 51,,,
584,HECTOR RAUL CASTRO MORENO,,,,HECTOR RAUL CASTRO MORENO,,,,,LAS TABLAS,,,1.00 ,7-708-170 D.V. 08,,,
585,JUSTO ALBERTO SAMANIEGO NIETO,,,,JUSTO ALBERTO SAMANIEGO NIETO,,,,,LAS TABLAS,,,1.00 ,7-116-425 D.V. 85,,,
586,AUGUSTO ESPINO,,,,AUGUSTO ESPINO,,,,,LAS TABLAS,,,1.00 ,7-41-323 D.V. 35,,,
587,IVAN ARTHURO HERRERA GONZALEZ,,,,IVAN ARTHURO HERRERA GONZALEZ,,,,,LAS TABLAS,,,1.00 ,7-702-538 D.V. 06,,,
588,VICTOR MANUEL VELASQUEZ BATISTA,,,,VICTOR MANUEL VELASQUEZ BATISTA,,,,,LAS TABLAS,,,1.00 ,7-99-446 D.V. 10,,,
589,JAIME JESUS NAVARRO GARCIA,,,,JAIME JESUS NAVARRO GARCIA,,,,,LAS TABLAS,,,1.00 ,8-859-2238 D.V. 14,,,
590,ANALIDES MARIA DOMINGUEZ BATISTA,,,,ANALIDES MARIA DOMINGUEZ BATISTA,,,,,LAS TABLAS,,,1.00 ,7-708-2201 D.V. 48,,,
591,GENARINO VEGA SANCHEZ,,,,GENARINO VEGA SANCHEZ,,,,,LAS TABLAS,,,1.00 ,8-719-428 D.V. 92,,,
592,FRANCISCO AGUSTIN HERNANDEZ ZAMBRANO,,,,FRANCISCO AGUSTIN HERNANDEZ ZAMBRANO,,,,,LAS TABLAS,,,1.00 ,7-707-1053 D.V. 54,,,
593,Jorge Bustamante Mela,,,,Jorge Bustamante Mela,,,.,.,LAS TABLAS,,,1.00 ,7-106-713 D.V. 03,,,
594,JOSE ISABEL DIAZ SANDOVAL,,,,JOSE ISABEL DIAZ SANDOVAL,,,.,.,LAS TABLAS,,,1.00 ,6-706-311 D.V. 04,,,
595,JORGE AQUILES BATISTA GONZALEZ,,,,JORGE AQUILES BATISTA GONZALEZ,,,,,LAS TABLAS,,,1.00 ,8-429-223 D.V. 72,,,
596,DIDIMO BARRIOS VELASQUEZ,,,,DIDIMO BARRIOS VELASQUEZ,,,,,LAS TABLAS,,,1.00 ,7-56-280 D.V. 74,,,
597,ELISA ARELYS BARRIOS GONZALEZ,,,,ELISA ARELYS BARRIOS GONZALEZ,,,,,LAS TABLAS,,,1.00 ,6-709-877 D.V. 60,,,
598,MANUEL VARGAS CASTRO,,,,MANUEL VARGAS CASTRO,,,,,LAS TABLAS,,,1.00 ,7-704-641 D.V. 37,,,
599,EDUARDO JOSE BATISTA BARRIA,,,,EDUARDO JOSE BATISTA BARRIA,,,,,LAS TABLAS,,,1.00 ,7-702-2190 D.V. 38,,,
600,HECTOR AQUILES JAEN GONZALEZ,,,,HECTOR AQUILES JAEN GONZALEZ,,,,,LAS TABLAS,,,1.00 ,7-704-1275 D.V. 89,,,
601,OMAIRA ELAIDA BROCE DE CHAVEZ,,,,OMAIRA ELAIDA BROCE DE CHAVEZ,,,,,LAS TABLAS,,,1.00 ,7-119-676 D.V. 67,,,
602,FAUSTINO GONZALEZ CEDEÑO,,,,FAUSTINO GONZALEZ CEDEÑO,,,,,LAS TABLAS,,,1.00 ,7-75-45 D.V. 83,,,
603,FRANKLIN HECTOR MORENO ESCOBAR,,,,FRANKLIN HECTOR MORENO ESCOBAR,,,,,LAS TABLAS,,,1.00 ,7-93-1709 D.V. 02,,,
604,JOSE SANTIAGO DOMINGUEZ CEDEÑO,,,,JOSE SANTIAGO DOMINGUEZ CEDEÑO,,,,,LAS TABLAS,,,1.00 ,7-30-714 D.V. 33,,,
605,ALVARO ALBERTO DOMINGUEZ BATISTA,,,,ALVARO ALBERTO DOMINGUEZ BATISTA,,,,,LAS TABLAS,,,1.00 ,7-704-2487 D.V. 00,,,
606,FIDEL ALEXANDER CASTILLO RODRIGUEZ,,,,FIDEL ALEXANDER CASTILLO RODRIGUEZ,,,,,LAS TABLAS,,,1.00 ,8-741-1246 D.V. 33,,,
607,BERGIS ABDIEL ZARZAVILLA BARRIOS,,,,BERGIS ABDIEL ZARZAVILLA BARRIOS,,,,,LAS TABLAS,,,1.00 ,7-700-1176 D.V. 55,,,
608,HARMODIO REINALDO MUDARRA VELASQUEZ,,,,HARMODIO REINALDO MUDARRA VELASQUEZ,,,,,LAS TABLAS,,,1.00 ,7-101-91 D.V. 08,,,
609,YISLENA YISEL SORIANO MORALES,,,,YISLENA YISEL SORIANO MORALES,,,,,LAS TABLAS,,,1.00 ,7-706-758 D.V. 19,,,
610,JOANY DEL CARMEN VERGARA FRIAS,,,,JOANY DEL CARMEN VERGARA FRIAS,,,,,Las Tablas,,,1.00 ,7-703-1019 D.V. 00,,,
611,VIANCA DESIRETH JAEN AMAYA,,,,VIANCA DESIRETH JAEN AMAYA,,,,,LAS TABLAS,,,1.00 ,7-702-1905 D.V. 44,,,
612,OCTAVIO HERNANDEZ BARAHONA,,,,OCTAVIO HERNANDEZ BARAHONA,,,,,LAS TABLAS,,,1.00 ,7-109-28 D.V. 57,,,
613,EDWIN HIRISNEL DE LEON BATISTA,,,,EDWIN HIRISNEL DE LEON BATISTA,,,,,,,,1.00 ,7-102-392 D.V.   ,,,
614,ROBERTO CARLO SORIANO BARRIOS,,,,ROBERTO CARLO SORIANO BARRIOS,,,,,LAS TABLAS,,,1.00 ,8-779-665 D.V. 76,,,
615,EFRAIN MIRANDA VERGARA,,,,EFRAIN MIRANDA VERGARA,,,,,LAS TABLAS,,,1.00 ,8-702-2313 D.V. 11,,,
616,SERGIO FRANCISCO HERRERA CARDENAS,,,,SERGIO FRANCISCO HERRERA CARDENAS,,,,,LAS TABLAS,,,1.00 ,7-69-1056 D.V.   ,,,
617,BELIS ANTONIO JARAMILLO VARGAS,,,,BELIS ANTONIO JARAMILLO VARGAS,,,,,LAS TABLAS,,,1.00 ,6-717-1025 D.V.   ,,,
618,PLINIO PEREZ MORENO,,,,PLINIO PEREZ MORENO,,,,,LAS TABLAS,,,1.00 ,7-92-502 D.V.   ,,,
619,EUSTORGIO GONZALEZ DOMINGUEZ,,,,EUSTORGIO GONZALEZ DOMINGUEZ,,,,,LAS TABLAS,,,1.00 ,7-70-2508 D.V. 82,,,
620,MARIELA EDITH MARTINEZ GONZALEZ DE PERALTA,,,,MARIELA EDITH MARTINEZ GONZALEZ DE PERALTA,,,,,LAS TABLAS,,,1.00 ,9-121-1351 D.V. 97,,,
621,JACQUELINE MARIELA  CORDOBA SUGASTI,,,,JACKELINE MARIELA  CORDOBA SUGASTI,,,,,LAS TABLAS,,,1.00 ,6-56-1852 D.V. 60,,,
622,BOLIVAR RAUL ARABA GUTIERREZ,,,,BOLIVAR RAUL ARABA GUTIERREZ,,,,,LAS TABLAS,,,1.00 ,7-75-972 D.V. 20,,,
623,EMILIO VERGARA DE LEON,,,,EMILIO VERGARA DE LEON,,,,,LAS TABLAS,,,1.00 ,7-66-189 D.V. 76,,,
624,"Comfort Air,S.A.",,,,German Sandi Sabin,,,2293968,229-3933,Calle 1era Carrasquilla Edificio Elise Local # 13,,,1.00 ,532097-980944-1 D.V. 88,,,
625,ADAN VERGARA MORALES,,,,ADAN VERGARA MORALES,,,,,LAS TABLAS,,,1.00 ,7-116-449 D.V. 52,,,
626,RICAUTER MORENO ALFONSO,,,,RICAUTER MORENO ALFONSO,,,,,HERRERA - CHITRE,,,1.00 ,6-59-470 D.V. 44,,,
627,"SEMAFER & CONSTRUCCIONES, S.A.",,,,LESBIA ENITH ADAMES PEREZ,,,,,,,,1.00 ,459040-646551-1 D.V. 23,,,
628,"AGRO EXPORT INTERNACIONAL, S.A.",,,,MANUEL ALEJANDRO CANO FERGUSON,,,278-6700,.,"PUEBLO NUEVO, CALLE FERNANDEZ D CORDOBA- EDIFICIO FORMAS UNIVERSALES - APT. 2",,,1.00 ,772912-2198592-1 D.V. 20,,,
629,CAMILO JAEN DOMINGUEZ,,,,CAMILO JAEN DOMINGUEZ,,,,,LOS SANTOS,,,1.00 ,7-98-418 D.V.   ,,,
630,MARIA DEL CARMEN ESTEVEZ ESTEVEZ DE CANO,,,,MARIA DEL CARMEN ESTEVEZ ESTEVEZ DE CANO,,,,,SANTIAGO,,,1.00 ,9-729-1002 D.V. 99,,,
631,"PREMIUM CORPORATION, S.A.",,,,ETHNI GRISELDA ECHEVERRIA CONCEPCIÓN,,,260-3911,.,"PLAZA VENTURA, PISO 3 - M 16",,,1.00 ,694141-1739948-1 D.V. 19,,,
632,JOSE ZOILO JIMENEZ HERNANDEZ,,,,JOSE ZOILO JIMENEZ HERNANDEZ,,,.,.,LAS TABLAS,,,1.00 ,7-104-495 D.V.   ,,,
633,DELVIN EUCLIDES BARRIOS ALMANZA,,,,DELVIN EUCLIDES BARRIOS ALMANZA,,,.,.,SANTIAGO,,,1.00 ,7-117-508 D.V.   ,,,
634,ARCENIO CEDENO HERNANDEZ,,,,ARCENIO CEDEÑO HERNANDEZ,,,,,LAS TABLAS,,,1.00 ,7-122-42 D.V. 00,,,
635,ELSA MARIELA HERNÁNDEZ VILLAREAL,,,,ELSA MARIELA HERNÁNDEZ VILLAREAL,,,991-0058,6911-6440,"PENONOME, LAS LOMAS,CALLE C, CASA I",,,1.00 ,2-80-584 D.V. 1 ,,,
636,JOSE DIOGENES GONZALEZ FLORES,,,,JOSE DIOGENES GONZALEZ FLORES,,,,,"PESE, HERRERA",,,1.00 ,6-55-838 D.V. 13,,,
637,JOSE DE LA CRUZ RODRIGUEZ DE GRACIA,,,,JOSE DE LA CRUZ RODRIGUEZ DE GRACIA,,,,,"LOS SANTOS, MARACAS",,,1.00 ,7-103-484 D.V. 00,,,
638,EDISON ELIAS BUSTAMANTE RODRIGUEZ,,,,EDISON ELIAS BUSTAMANTE RODRIGUEZ,,,,,"LAS TABLAS, LOS SANTOS",,,1.00 ,7-701-1275 D.V. 00,,,
639,"PRINTING SERVICE, S.A.",,,,Patricia Alejandra Tapia Jackson,,,393-0128,,"Juan Díaz, Urb. Jardin Olimpico - Edif. B, Aprt. -109",,,1.00 ,776397-2220626-1 D.V. 63,,,
640,KNIGHT CORP.,,,,Franklin Abdiel Juliao Dominguez,,,830-5570,830-5570,"Urb. Villa Caceres,Calle 20F,Edif. Colonial Tower,Local 4A",,,1.00 ,580291-1191460-1 D.V.   ,,,
641,NULATO COMMERCIAL INC,,,,Aaron Gibran Flores Gil,,,830-5570,830-5545,"Urb.Bella Vista, Calle 42 y 43, Edif BBVA,Local 4",,,1.00 ,720502-1888508-1 D.V.   ,,,
642,ALEJANDRO DE LEON DELGADO,,,,ALEJANDRO DE LEON DELGADO,,,,,LAS TABLAS,,,1.00 ,7-93-2584 D.V. 00,,,
643,RUBIEL ELIECER GONZALEZ MONTENEGRO,,,,RUBIEL ELIECER GONZALEZ MONTENEGRO,,,,,"HERRERA, CHITRE",,,1.00 ,6-85-172 D.V. 55,,,
644,"H.C. CONSTRUCCIÓN, INC.",,,,HECTOR ELIECER CEDEÑO DURAN,,,225-7626,.,"Justo Arosemena, Edificio P.H. Dollar",,,1.00 ,601227-1283974-1 D.V. 01,,,
645,SILVIA XIOMARA PERALTA SAEZ,,,,SILVIA XIOMARA PERALTA SAEZ,,,.,.,LAS TABLAS,,,1.00 ,7-111-895 D.V.   ,,,
646,DIGNA ZEBEIDA DE FRIAS RIOS,,,,DIGNA ZEBEIDA DE FRIAS RIOS,,,,,,,,1.00 ,6-42-870 D.V.   ,,,
647,"INVERSIONES RAJUP CHIRIQUI, S.A.",,,,Luis H. Rivera Anguizola,,,775-3201,7753201,"David, Doleguita, Ave. Octava Oeste y K Norte,",,,1.00 ,208949-23608-155 D.V.   ,,,
648,HERNAN BARRIOS VASQUEZ,,,,HERNAN BARRIOS VASQUEZ,,,,,"GUARARÉ, LOS SANTOS",,,1.00 ,7-94-669 D.V.   ,,,
649,M T P  CORP.,,,,Eneldo Matos Almengor,,,209-7805,279-7806,"Bethania, Juan Pablo II, Calle sin salida, Casa 2L esquina",,,1.00 ,586926-1223947-1 D.V.   ,,,
650,"PRODECA INTERNACIONAL, S.A.",,,,Edonays Caballero Checa,,,217-1792,217-4068,"Panamá, Campo Limberg, Calle  San Judas Tadeo, Edificio  PH Plaza las Arcadas apto. 14",,,1.00 ,577274-1176596-1 D.V.   ,,,
651,"INVERSIONES CINCUENTENARIO, S.A.",,,,Luis Alberto Hernández Valencia,,,260-6739,970-1934,"Panamá, Panamá, Calidonia, calle 25, Edif. CAMEL, Apto./local 9",,,1.00 ,323762-52211-135 D.V. 39,,,
652,Samuel Augusto Rios Dominguez,,,,Samuel Augusto Rios Dminguez,,,,,"Colón, Colón",,,1.00 ,3-104-975 D.V.   ,,,
653,"PROYECTOS Y CONSTRUCCIONES, S.A.",,,,Vitelio Nivaldo Madrid Martínez,,,203-2360,203-2361,"Via Brazil, El agua, P.H. Brazil, Local 405, corregimiento de Bella Vista, distrito de Panamá, provincia de Panamá.",,,1.00 ,362887-65984-2 D.V.   ,,,
654,"INVERSIONES J.B.K., S.A.",,,,Juan Perez,,,710-4120,710-4120,"Prov. Bocas del toro, dist. changuinola, correg. changuinola",,,1.00 ,797100-2346468-1 D.V. 62,,,
655,"TURMARK COMPANY, S.A.",,,,FERNANDO CESPEDEZ,,,2541312,, LA CHORRERA,,,1.00 ,796477-2342291-1 D.V.   ,,,
656,"GALGO PAPER INC, S.A.",,,,FERNANDO CESPEDEZ,,,3452226,1234567,LA CHORRERA,,,1.00 ,577017-1175327-1 D.V.   ,,,
657,"CLEAN DEVELOPMENT GROUP, S.A.",,,,FERNANDO CESPEDEZ,,,123456,,LA CHORRERA,,,1.00 ,698357-1761851-1 D.V.   ,,,
658,"GRUPO H R & R, S.A.",,,,FERNANDO CESPEDEZ,,,12456,,LA CHORRERA,,,1.00 ,737063-1981577-1 D.V.   ,,,
659,Leonardo Abad De Gracia Ureña,,,,Leonardo Abad De Gracia Ureña,,,,,"Los Santos, Tonosí",,,1.00 ,7-704-861 D.V.   ,,,
660,"Suplidora Osman, S.A.",,,,Edibardo Guerra Trejos,,,65826735,,"Panamá, Bethania, Urbanización los Angeles, Calle 63, Casa A1",,,1.00 ,361712-65596-1 D.V.   ,,,
661,"CORPORACION VULCANO, S.A.",,,,Estilio Diaz Caballero,,,264-7540,,"Panamá, Bella Vista, Urb. Bella Vista, Calle Ave. Justo Arosemena,  Edif. J.J. Vallarino, Local 6",,,1.00 ,244513-31718-24 D.V.   ,,,
662,"Geisa Internacional, S.A.",,,,Guadalupe González de Cedeño,,,225.4529,225-4529,Ave. Justo Arosemena Edif. P.H. Dollar,,,1.00 ,546648-1046908-1 D.V. 78,,,
663,Roberto Elias Hernández Herrera,,,,Roberto Elias Hernández Herrera,,,,,"Los Santos, Las Tablas",,,1.00 ,7-70-2075 D.V.   ,,,
664,JOSE ABDIEL MORENO,,,,JOSE ABDIEL MORENO,,,,,"HERRERA, CHITRÉ",,,1.00 ,6-709-28 D.V.   ,,,
665,RONAL GABRIEL CHAVEZ,,,,RONAL GABRIEL CHAVEZ,,,,,"CHITRÉ, HERRERA",,,1.00 ,6-719-1013 D.V.   ,,,
666,"MECONTELSA, S.A.",,,,Ramon Esmirde Diaz Guillen,,,390-9048,,"Bethania, Urb. CLUB X, Calle 74B, Casa 71A",,,1.00 ,632367-1423151-1 D.V. 91,,,
667,"SALAZAR SCOTT, S.A.",,,,JOYCE CHRISTINE SCOTT VILLAVERDE,,,261-6594,261-6594,"Panamá, Betania, Camino real, local 212 D",,,1.00 ,670822-1624521-1 D.V.   ,,,
668,AMANDA ELIZABETH ECHEVERRIA DE VILLARREAL,,,,AMANDA ELIZABETH ECHEVERRIA DE VILLARREAL,,,933-4233,933-4233,"Veraguas, Santiago, Atalaya, Urb. San Vicente, Casa No.4",,,1.00 ,8-238-323 D.V.   ,,,
669,"GRUPO INDEX, S.A.",,,,RICARDO ANTONIO GUZMAN AROSEMENA,,,260-4172,2097631,"Bethania, Urb. Club X, Calle 133 de La Nacion, Casa 26A",,,1.00 ,599325-1276195-1 D.V.   ,,,
670,"MAJANO, S.A.",,,,Marcos Javier Cedeño Marciaga,,,261-7639,261-7639,"Pueblo Nuevo, 12 de octubre y via la Pulida, casa 2",,,1.00 ,618663-1356279-1 D.V. 67,,,
671,"Proyectos y Desarrollo Panamericanos, S.A.",,,,Tomas Alberto Perez Rodriguez,,,392-9651,392-9651,"Bella Vista, Calle Eusebio A. Morales, PB. Hotel Milán, Local 2",,,1.00 ,772367-2194787-1 D.V. 89,,,
672,"PTS, S.A.",,,,CHI HUNG MAN WAN,,,251-0800,251-0898,"Arraiján, Urb. La arboleda de cacéres, calle 7ma, Casa H-26",,,1.00 ,664778-1592346-1 D.V.   ,,,
673,"Proyectos e Inversiones del Istmo, S.A.",,,,Juan Saturnino Díaz Díaz,,,315-0641,66192211,"Urb. Ancón, Albrook, Calle Guacamayas, Apto/local 83",,,1.00 ,772656-2196899-1 D.V.   ,,,
674,"ALUVID DE PANAMÁ, S.A.",,,,LUIS ANTONIO FASANO SALAZAR,,,2224938,2224860,"Río Abajo, Calle 14, Edif. ALUVID, Apto 2",,,1.00 ,379748-108960-1 D.V.   ,,,
675,EDO AND CONSULTING INC,,,,AURELIO MEJIA,,,265-5600,,Plaza Regency,,,1.00 ,435827-501231-1 D.V. 94,,,
676,"Torisa, Inc.",,,,Carlos Rafael Bryan Torres,,,396-6350,,"El Dorado, Edif. Don Manuel, Ofic. No.2",,,1.00 ,371238-51261-1 D.V. 0 ,,,
677,"GFP, S.A. ",,,,Jessenia Janette Marciaga Pineda,,,394-0461,,"Bella vista, Urbanizacion Campo Alegre, calle Via España, Edif. Arcelia, local 4. ",,,1.00 ,804149-2395142-1 D.V. 30,,,
678,Teresa Spina Gibbs,,,,Teresa Spina Gibbs,,,6691-8002,,Chorrera,,,1.00 ,8-177-777 D.V.   ,,,
679,"TEE-SHIRTS EXPRESS PANAMA, S.A.",,,,Jose Marcos Esquivel Castillero,,,392-5032,394-7116,"Bethania, Los Angeles, Edif. El Vigia detras de Felipe Rodriguez, a un costado del edif. talisman",,,1.00 ,557807-1093651-1 D.V. 62,,,
680,ESAL GROUP CORP.,,,,Ivan Xavier Alvarez Torres,,,392-5032,394-7115,"Bethania, Los Angeles, Edif. El Vigia PB, detras de Felipe Rodriguez",,,1.00 ,734709-1967424-1 D.V. 67,,,
681,"TORRES,  S.A.",,,,Roberto Anel Torres Calderon,,,240-6735,-,"Chame, Calle Guillermo Herrera, Final Colegio Leonardo daVinci",,,1.00 ,528767-965192-1 D.V. 45,,,
682,Seguritas Inc.,,,,Alejandro Eleuterio Fitten Sánchez,,,474-4187,449-3120,"Colon, Sabanitas, Urb. Tagaropulos, local 6996, Antiguo IRHE",,,1.00 ,570251-1144076-1 D.V.   ,,,
683,"REPUESTOS ITOR, S.A.",,,,Angelica María Barcenas Núñez,,,229-3084,229-9583,"Parque lefevre, Ave. Ernesto Lefevre, PL162,",,,1.00 ,544236-1037849-1 D.V.   ,,,
684,"INVERSIONES TORAGIO, S.A.",,,,JUAN ANTONIO JIMENEZ GONZALEZ,,,264-4378,,"Panamá, Bella Vista, Urb. Nuevo Reparto El Carmen, Cl 6ta  Ed. MATTEW  MARIAZZEL, PB.",,,1.00 ,401989-243140-1 D.V.   ,,,
685,"GINTEVEN SERVICIOS, S.A.",,,,FERNANDO ANTONIO ECHEVERRIA DE YCAZA,,,396-0368,3975227,"Costa del Este, Calle Marina, Edif. Plaza Real, Piso 3, Ofic. 302",,,1.00 ,690327-1721200-1 D.V.   ,,,
686,"COREBA, S.A.",,,,Yesika Del Carmen Concepción Rivera,,,774-1872,774-9568,"Chiriqui, David, calle B Norte y Ave. Domingo Diaz",,,1.00 ,397050-211912-1 D.V. 21,,,
687,"JOAMEL INVESTMENT, S.A. ",,,,Santiago Bell Rivera ,,,394-6193,,"Bella Vista, calle Via Argentina, No. ofic. 311 ",,,1.00 ,708811-1820138-1 D.V. 42,,,
688,"LA MACARENA DE ESPAÑA, S.A.",,,,Daniel Emilio Vallejos Caraballo,,,775-8633,,"Chiriquí, David, Urbanización Área Bancaria, Calle C Norte, Edificio Don Osvaldo, Apartamento 5",,,1.00 ,541202-1024305-1 D.V. 0 ,,,
689,CHI HUNG MAN WAN,,,,CHI HUNG MAN WAN ,,,,,,,,1.00 ,N-19-730 D.V.   ,,,
690,"CONSTRUCTORA TA-CHINO, S.A.",,,,Jose Manuel Aparicio Pinto,,,730-5070,,"Ave. 7ma oeste, San Mateo, David, Chiriqui,",,,1.00 ,620231-1363323-1 D.V.   ,,,
691,"VODA SOLUTIONS, S.A.",,,,José Luis Moscoso Hidalgo,,,396-9088,6727-1123,"Plaza Agora, Local 20, Vía Fernández de Córdoba",,,1.00 ,735808-1973271-1 D.V. 96,,,
692,"LETTFALAH NADER Y COMPAÑÍA, S.A.",,,,Elida Julieta Guerra de Nader,,,775-3891,775-3891,"Chiriquí, David, Urb. El carmen, Calle 3ra y Cll G sur",,,1.00 ,4217-171-358 D.V.   ,,,
693,"CETSA, S.A.",,,,Carlos Enrique Troetsch Saval,,,774-0108,,"Chiriquí, David, Urb. Manuel Quintero Villarreal, Calle A Sur, Entre Avenida 2DA y 3RA Oeste",,,1.00 ,306419-47230-29 D.V. 92,,,
694,"Inmobiliaria Di Bilio, S.A.",,,,Oliva Del Carmen Vial Di Bilio,,,775-8281,,"Vía Interamericana, David, Frente a COMASA",,,1.00 ,65564-5220-134 D.V.   ,,,
695,"KAREN CAR, S.A.",,,,Ofelia Rosa Moreno Perez,,,6962-1769,,"Chitré, San Juan Bautista, Urb. Rayo de Luz, Cll 1",,,1.00 ,638273-1451385-1 D.V. 90,,,
696,"DECO LLANTAS, S.A.",,,,Rocio Isabel Villarreal Tello,,,910-1070,970-1071,"Herrera, Chitré, Urb. Paseo Enrique Geenzier, Cll Herrera, Casa1",,,1.00 ,837718-2629072-1 D.V.   ,,,
697,"SERVIYA PROYECTOS, S.A.",,,,Ovidio Perez Caballero,,,774-1872,774-9568,"Chiriquí, David, Calle B norte y Ave. Domingo Díaz",,,1.00 ,829557-2571493-1 D.V.   ,,,
698,"Compañía Venta y Acarreos C y C, S.A.",,,,Carlos Alberto Cedeño Guerra,,,,,,,,1.00 ,831708-2586066-1 D.V.   ,,,
699,"CONTRACTORS & DESIGNERS, S.A.",,,,JOSE ATENCIO,,,,,,,,1.00 ,520762-927310-1 D.V.   ,,,
700,"ORGANIZACIÓN NOBEL, S.A.",,,,Jessica Ann Gutierrez Romolton de Urrutia,,,397-0368,6232-1601,"Clle. 58 Obarrio, Edf. OFFICE ONE, Piso 15, oficina  1509-1",,,1.00 ,746455-2041492-1 D.V.   ,,,
701,"LM - Ingenieros, S.A.",,,,Luis Alberto Moreno,,,910-0812,,"Herrera, Chitré, Urb. Isabel Delfina, Casa N°3129",,,1.00 ,678086-1663260-1 D.V. 42,,,
702,"PROYECTOS Y DESARROLLOS DE CHAME, S.A.",,,,David Robles Esquina,,,203-6250,203-6251,"Via España, Edf. Banco Delta, Piso 5, Oficina 502",,,1.00 ,807389-2417178-1 D.V. 47,,,
703,"ASC PANAMA, S.A.",,,,Danelia Judith Hayes Padilla,,,294-4844,294-4433,"Panamá, Torres de las Americas, Torre A, Piso 15",,,1.00 ,717201-1871514-1 D.V.   ,,,
704,"CONSTRUMARKET, S.A.",,,,Rodrigo Javier Bolaños Milla,,,222-0141,222-0140,"Vía Ricardo J. Alfaro, entre la entrada de El Bosque y  Linda  Vista",,,1.00 ,719834-1885065-1 D.V.   ,,,
705,Felix Ernesto Núñez Berrocal,,,,Felix Ernesto Núñez Berrocal,,,910-1051,,"Chitré, El Francisco, Edificio Massisa Local #1",,,1.00 ,8-295-151 D.V.   ,,,
706,"Transmisión y Comunicación, S.A.",,,,Itzela Chaverri,,,,,,,,1.00 ,656805-1547656-1 D.V.   ,,,
707,"ETAC INVERSIONES, S.A.",,,,AGUEDA ALINA MURGAS JIMENEZ,,,774-5067,,"Chiriquí, David, Calle C Norte, Edificio PH Malami, Local 210",,,1.00 ,585299-1215997-1 D.V. 3 ,,,
708,TRANSPORTE OSPINA,,,,ORIEL OSPINA FRIAS,,,64557680,,"Panamá, Chorrera, La mitra.",,,1.00 ,8-479-899 D.V.   ,,,
709,LUIS ROBERTO ARANDA HERMIDA,,,,LUIS ROBERTO ARANDA HERMIDA,,,6616-3841,-,"Cll. 77 San Francisco, P.H. Star Bay Piso 3, Apto 3A",,,1.00 ,E-8-114794 D.V.   ,,,
710,TEST,,,,TEST,,,,,,,,1.00 ,2222-2222-222 D.V. 2 ,,,
711,Roberto Anel Torres Calderón,,,,Roberto Anel Torres Calderón,,,6674-4671,,"Corregimiento de San Carlos, Urbanización Hacienda Pacífico, Casa 55",,,1.00 ,8-529-581 D.V.   ,,,
712,"Grupo Panalang Union, Inc.",,,,Valerio De Sanctis De Ferrari,,,224-8443,,"Panamá, Provincia de Panamá, Corregimiento de Río Abajo, Urbanización Río Abajo, Calle 12 Río Abajo Final",,,1.00 ,337968-57179-167 D.V. 90,,,
713,EUSTORGIO ORTIZ RODRÍGUEZ,,,,EUSTORGIO ORTIZ RODRÍGUEZ,,,,,,,,1.00 ,8-318-423 D.V.   ,,,
714,Productos Juanjo,,,,Oriel Ospina Frías,,,,,"Playa Leona, La Mitra, Calle Paso Arena, Casa 4265",,,1.00 ,8--479-899 D.V. 99,,,
715,KPI Ultrasonidos México,,,,Verónica San Marcos Paez,,,,,"Calle Duque Rivas, Guadalajara, México",,,1.00 ,2502049-2010250276-1009142510 D.V.   ,,,
716,"Corporación Almotec, S.A.",,,,William Alfaro Monge,,,506-25285464,506-22242882,"Costa Rica,San José, Zapote, 225 Metros Sur de Correos de Costa Rica",,,1.00 ,3101597891-1-1 D.V.   ,,,
,,,,,,,,,,,,,,,,,
,,,,,,,,,,,,,,,,,1
