moveName,Description,nature
Deposit,Represents a inflow of money into the bank account,1
Debit Note,A decrease of the account balance as a result of factors other than a cash withdrawal ir a written check being cashed in.,0
Check ,Represents a outflow of money from the bank account,0
Credit Note,"a memorandum issued to an account allowing a credit or reducing a debit, especially one posted to a customer's account",1
